Receipt No,Invoice number,Payment Date,Payed By,Amount Paid
EC200705191685,RS000480,03/09/2020,AAR,23500
EC200705191685,RS0M000486,03/09/2020,AAR,21000
EC200705191685,RSM000531,03/09/2020,AAR,5001
EC200705191685,RS000569,03/09/2020,AAR,1000
EC200705191685,RSM000574,03/09/2020,AAR,28000
EC200705191685,RSM000548,03/09/2020,AAR,7000
EC200705191685,RSM000591,03/09/2020,AAR,26000
EC200705191685,RSM000636,03/09/2020,AAR,17000
