Patient Number,Patient Surname,Patient Othernames,Title (i.e. Mr),Date of Birth (i.e. YYYY/MM/DD),Civil Status,Address,Postal Code,City,Phone Number,Alternate Phone,Email,National Id,Religion,Gender (i.e. M or F),Next of Kin Othernames,Next of Kin Surname,N.O.K Phone,N.O.K Phone 2,Ragistration Date
001,IAN MACHARIA,,,,,,,,0718724942,,,,,,,,,,
002,MERCY NJERI,,,,,,,,0715826445,,,,,,,,,,
003,EMILY CHEPROT,,,,,,,,0727290633,,,,,,,,,,
004,DIVONNE OWUOR,,,,,,,,0720704395,,,,,,,,,,
005,WALTER CHEMJOR,,,,,,,,0722607730,,,,,,,,,,
006,ALPHA OBONYO,,,,,,,,0719110704,,,,,,,,,,
007,ACHAYO JULIAH,,,,,,,,0725259008,,,,,,,,,,
008,MICHAEL MUTISYA,,,,,,,,0702568747,,,,,,,,,,
009,KENNEDY GITONGA,,,,,,,,0717010641,,,,,,,,,,
010,JOSHUA NJERU(kid),,,,,,,,0720563090,,,,,,,,,,
011,ALICE MUKAMI,,,,,,,,0720842656,,,,,,,,,,
012,YASMIN MOHAMMED,,,,,,,,0798419129,,,,,,,,,,
013,MICHAEL MUGO,,,,,,,,0710655510,,,,,,,,,,
014,ELIZABETH MBUGUA,,,,,,,,0721375679,,,,,,,,,,
015,MIRIAM CHEGE,,,,,,,,0724110336,,,,,,,,,,
016,KETER KIBET MICAH,,,,,,,,0722235012,,,,,,,,,,
017,ELIZABETH WANGUI,,,,,,,,0724140716,,,,,,,,,,
018,HARUN KIMANI,,,,,,,,0723605502,,,,,,,,,,
019,BETH WANJIKU,,,,,,,,0721395699,,,,,,,,,,
020,MERCY BIRGEN,,,,,,,,0710696992,,,,,,,,,,
021,EDDY MUMO(kid),,,,,,,,0723850540,,,,,,,,,,
022,NEEMA NJOKI,,,,,,,,0725048635,,,,,,,,,,
023,LUCY WANJIRU,,,,,,,,0708850584,,,,,,,,,,
024,DANIEL NGUMU,,,,,,,,0711136865,,,,,,,,,,
025,GAVIN NDERITU(kid),,,,,,,,0724688062,,,,,,,,,,
026,JOHN CHELES,,,,,,,,0721406545,,,,,,,,,,
027,JOYCE KIMENTO,,,,,,,,0714974342,,,,,,,,,,
028,MONICAH NJOROGE,,,,,,,,0724950626,,,,,,,,,,
029,MAUREEN OGETII,,,,,,,,0729855142,,,,,,,,,,
030,ZUBEDA SAID,,,,,,,,0799503743,,,,,,,,,,
031,ALLAN CIIRA,,,,,,,,0730000065,,,,,,,,,,
032,JOHN MWAURA,,,,,,,,0730000065,,,,,,,,,,
033,JONAH KAHUNGU,,,,,,,,0721792908,,,,,,,,,,
034,ROSEMARY WACEKE,,,,,,,,0726282516,,,,,,,,,,
035,LYDIAH HOPE,,,,,,,,0722447706,,,,,,,,,,
036,MARGARET CHEBET,,,,,,,,0715431769,,,,,,,,,,
037,FAITH WANJIRU(kid),,,,,,,,0721947177,,,,,,,,,,
038,SARAH CHEPKEMOI,,,,,,,,0722803866,,,,,,,,,,
039,PAMELA BARASA,,,,,,,,0722876401,,,,,,,,,,
040,EVANS LAVUSA,,,,,,,,0712871499,,,,,,,,,,
041,ROBERT HUMPHREY ,,,,,,,,0726727912,,,,,,,,,,
042,BETH WANJIRU,,,,,,,,0721523406,,,,,,,,,,
043,FAITH AKHONYA,,,,,,,,0720765060,,,,,,,,,,
044,JOSEPH NJOROGE,,,,,,,,0710300860,,,,,,,,,,
045,KENNETH KAMUREN,,,,,,,,0722592552,,,,,,,,,,
046,PRECIOUS WACEKE(kid),,,,,,,,0720563090,,,,,,,,,,
047,MONICA WANJA,,,,,,,,0713034904,,,,,,,,,,
048,MAURINE OBONYO,,,,,,,,0720774282,,,,,,,,,,
049,SAMUEL BABALI,,,,,,,,0706392610,,,,,,,,,,
050,SARAH NGAYWA,,,,,,,,0722578993,,,,,,,,,,
051,SAMSON MAINA,,,,,,,,0726630524,,,,,,,,,,
052,JACKLINE KADENYI,,,,,,,,0729977058,,,,,,,,,,
053,EDWIN MACHARIA,,,,,,,,0708530678,,,,,,,,,,
054,OSCAH MOMANYI,,,,,,,,0724954770,,-,,,,,,,,
055,RICHARD MAYAKA,,,,,,,,0713286902,,-,,,,,,,,
056,ISAAC CHIRO,,,,,,,,0702825096,,-,,,,,,,,
057,DAVID GITONGA,,,,,,,,0728126277,,-,,,,,,,,
058,GEOFREY ONDEGO,,,,,,,,0714290254,,-,,,,,,,,
059,TOO KIBET,,,,,,,,0714402720,,-,,,,,,,,
060,ZARAH HASSAN,,,,,,,,0799503743,,-,,,,,,,,
061,MARY NGANGA,,,,,,,,0721604833,,,,,,,,,,
062,COLLINS MWANGI,,,,,,,,0716224308,,,,,,,,,,
063,NELSON CHABUGA,,,,,,,,0711640555,,,,,,,,,,
064,LYDIA BETT,,,,,,,,0723809721,,,,,,,,,,
065,MARTHA WANGUI,,,,,,,,0725616332,,,,,,,,,,
066,MARGARET MWANGI,,,,,,,,0721562856,,,,,,,,,,
067,ALEX OMALE,,,,,,,,0716744557,,,,,,,,,,
068,JUSTUS MUTSYA,,,,,,,,0725371852,,,,,,,,,,
069,SAMUEL ADIDI,,,,,,,,0724174401,,,,,,,,,,
070,SAMSON NJOROGE,,,,,,,,0715011064,,,,,,,,,,
071,NATALIE AUMA,,,,,,,,0725363392,,,,,,,,,,
072,AGNES KAMAU,,,,,,,,0757646789,,,,,,,,,,
073,SELINA KONE EKIRU,,,,,,,,0757646789,,,,,,,,,,
074,FODA HILDA,,,,,,,,0722419898,,,,,,,,,,
075,EPHANTAS NDEGWA,,,,,,,,0726696307,,,,,,,,,,
076,VINCENT OTIENO,,,,,,,,0706318544,,,,,,,,,,
077,LILIAN CHANGEIYWO,,,,,,,,0708532084,,,,,,,,,,
078,RAPHAEL ONCHOKA,,,,,,,,0735675121,,,,,,,,,,
079,JOHN GITHINJI JONES,,,,,,,,0701574475,,,,,,,,,,
080,MARTIN MANDEGWA,,,,,,,,0715740794,,,,,,,,,,
081,PHENY MATANGI,,,,,,,,0797271955,,,,,,,,,,
082,VINCENT GORI,,,,,,,,0703206185,,,,,,,,,,
083,JAMES TUMO,,,,,,,,0715546307,,,,,,,,,,
084,PETER MWAURA,,,,,,,,0721151094,,,,,,,,,,
085,PAUL NJOROGE,,,,,,,,0721354367,,,,,,,,,,
086,NANCY MARITIM,,,,,,,,0722977225,,,,,,,,,,
087,JOSEPH KARANJA,,,,,,,,0720356146,,,,,,,,,,
088,JENIFFER WANJA,,,,,,,,0712200547,,,,,,,,,,
089,DANIEL MACHARIA,,,,,,,,0712200547,,,,,,,,,,
090,JAMES MAINGE,,,,,,,,0721325859,,,,,,,,,,
091,JOSEPH WACHIRA,,,,,,,,0768324092,,,,,,,,,,
092,SASHA NJERI,,,,,,,,0724754999,,,,,,,,,,
093,SARAH GITHUA,,,,,,,,0711775203,,githuasarah@yahoo.com,,,,,,,,
094,JOASH OTIENO ALOO,,,,,,,,0721279422,,aloo.joash2016@gmail.com,,,,,,,,
095,DYLAN BURGESS,,,,,,,,0708388401,,dyburgessa@gmail.com,,,,,,,,
096,KENNETH MURITHI,,,,,,,,0725535160,,kenndubi@gmail.com,,,,,,,,
097,NIXON OGOLA,,,,,,,,0721840954,,Nogolla@cclagroup.com,,,,,,,,
098,TANIA BLESSINGS (KID),,,,,,,,0724427746,,,,,,,,,,
099,BARRY MOROGO,,,,,,,,0722586120,,bmorogo@gmail.com,,,,,,,,
100,JOHN NJOROGE MWANGI,,,,,,,,0796217005,,-,,,,,,,,
101,BEATRICE MUTHONI,,,,,,,,0724688062,,beatymo2003@yahoo.com,,,,,,,,
102,SIMON MACHARIA NJUGUNA,,,,,,,,0700275941,,-,,,,,,,,
103,DAVID MUGOTHI KIRETAI,,,,,,,,0727303234,,davykirets@gmail.com,,,,,,,,
104,HARDLINE KORIR,,,,,,,,0743749969,,hardlinejeropp@gmail.com,,,,,,,,
105,JOSEPH WAIGANJO,,,,,,,,0718981630,,waigajoseph@gmail.com,,,,,,,,
106,STEPHEN NDOIYU WAMBUGU,,,,,,,,0712148109,,nduhiusteve@gmail.com,,,,,,,,
107,LYLA WAKIO (kid),,,,,,,,0702086512,,-,,,,,,,,
108,BERNARD RONO,,,,,,,,0724967577,,ronobkc@gmail.com,,,,,,,,
109,ROELAND KRIENSE LOKKER,,,,,,,,0773870238,,roelandquint@gmail.com,,,,,,,,
110,BRADLEY ADRIAN DENNIS (kid),,,,,,,,0705176881,,-,,,,,,,,
111,NZOMO KIKOLE,,,,,,,,0720775252,,-,,,,,,,,
112,LIZAH TUITOEK,,,,,,,,0720775252,,,,,,,,,,
113,JUDY KINYANJUI,,,,,,,,0722233754,,judykinyanjui@gmail.com,,,,,,,,
114,TERESIAH WANJIRU,,,,,,,,0727576245,,-,,,,,,,,
115,JOHN WAINAINA MWANGI,,,,,,,,0711167972,,mwangijohn325@gmail.com,,,,,,,,
116,ALICE MUKAI,,,,,,,,0722689066,,amukai@gmail.com,,,,,,,,
117,RACHEAL NJUGUNA,,,,,,,,0721317192,,-,,,,,,,,
118,SUSAN NYAMAI,,,,,,,,0720219337,,nchsma@yahoo.com ,,,,,,,,
119,PATRICK NDIRANGU MWANGI(kid),,,,,,,,0721545057,,-,,,,,,,,
120,PETER OSONO,,,,,,,,0722496580,,,,,,,,,,
121,MAXWELL NZESYA,,,,,,,,0794120110,,,,,,,,,,
122,BRITON MBOGO(kid),,,,,,,,0721654900,,-,,,,,,,,
123,ELINAH MBOGO(kid),,,,,,,,0721654900,,-,,,,,,,,
124,LUBIA MUGERA,,,,,,,,0781280407,,,,,,,,,,
125,FELISTUS RONO,,,,,,,,0727485505,,felistuschepkemoi@gmail.com,,,,,,,,
126,WAIGANJO NJENGA,,,,,,,,0716165168,,,,,,,,,,
127,CAROLYNE JEPKEMOI,,,,,,,,0727776124,,,,,,,,,,
128,STEPHEN GISHOE,,,,,,,,0721397005,,,,,,,,,,
129,REBECCA ACHOL,,,,,,,,0722687176,,,,,,,,,,
130,MURIA MATINDI,,,,,,,,0724127815,,,,,,,,,,
131,BONIFACE MACHARIA,,,,,,,,0719155499,,,,,,,,,,
132,SAVAN ONYANGO,,,,,,,,0700372443,,,,,,,,,,
133,ALLAN KIPLANGAT,,,,,,,,0712075259,,allanrono@hotmail.com,,,,,,,,
134,ENOS OKOTH,,,,,,,,0705830406,,-,,,,,,,,
135,MOSSES NYAOSI ORIERA,,,,,,,,0721985547,,monyasi@yahoo.com,,,,,,,,
136,MERCY NYAMBURA,,,,,,,,0768324093,,,,,,,,,,
137,PATRICK MWANGI,,,,,,,,0722853036,,,,,,,,,,
138,LUTFI SALIM,,,,,,,,0710713945,,lutfizt@yahoo.com,,,,,,,,
139,PETER MUNGA,,,,,,,,0722609498,,,,,,,,,,
140,GRACE MATHAI,,,,,,,,0717157011,,,,,,,,,,
141,ANDY NTONDWE BUYA(kid),,,,,,,,0722506014,,N/A,,,,,,,,
142,AJAH DAU ATER,,,,,,,,0791389357,,N/A,,,,,,,,
143,FAITH GATHERI,,,,,,,,0740490127,,N/A,,,,,,,,
144,FRED WAMALWA,,,,,,,,0703922303,,N/A,,,,,,,,
145,KENNEDY WANGUNGU,,,,,,,,0720926349,,gichukiwangungu@gmail.com,,,,,,,,
146,GRACE KERUBO NYANGENA,,,,,,,,0711604580,,naominyamo@gmail.com,,,,,,,,
147,VINCENT KUTOL,,,,,,,,0725377109,,kutolvincent@yahoo.com,,,,,,,,
148,ESTHER LUSALA,,,,,,,,0721994492,,,,,,,,,,
149,ABEE KAUGI KIRIMI( kid),,,,,,,,0725094558,,N/A,,,,,,,,
150,PHOEBE MUMBI,,,,,,,,0705059650,,mumbiwambugu312@gmail.com,,,,,,,,
151,BETTY CHELANGAT KETER,,,,,,,,0726741586,,betketer87@gmail.com,,,,,,,,
152,GEOFFREY KARANJA,,,,,,,,0704420661,,,,,,,,,,
153,JOSEPH KARANJA,,,,,,,,0702148296,,,,,,,,,,
154,BETTY MAARA,,,,,,,,0712199267,,beti.w18@gmail.com,,,,,,,,
155,STEPHEN MATHENGE,,,,,,,,0720274031,,N/A,,,,,,,,
156,OLLEN THOME,,,,,,,,0725740225,,N/A,,,,,,,,
157,ADRIANA CHEPCHUMBA(kid),,,,,,,,0726741586,,N/A,,,,,,,,
158,VINCENT OSUYA,,,,,,,,0728289583,,N/A,,,,,,,,
159,TANISHA WANGECI(kid),,,,,,,,0798990245,,N/A,,,,,,,,
160,ELIUD OPUKA IMUNYO,,,,,,,,0727007593,,opukaeliud@gmail.com,,,,,,,,
160,PURITY NJERI KARANJA,,,,,,,,0727007593,,opukaeliud@gmail.com,,,,,,,,
161,JOSEPH KAGIRI,,,,,,,,0705878128,,josekagiri@gmail.com,,,,,,,,
162,MASESE ADAMS,,,,,,,,0771443025,,masese.adams@gmail.com,,,,,,,,
163,JUDY NYAGUTHII,,,,,,,,0722461443,,N/A,,,,,,,,
164,EMMY TOROTICH,,,,,,,,0719746974,,N/A,,,,,,,,
165,PHYLLIS KAGWIRIA,,,,,,,,0728586094,,N/A,,,,,,,,
166,IAN KIPKOECH (kid),,,,,,,,0714784235,,N/A,,,,,,,,
167,MARY(KALANDE),,,,,,,,0726695476,,,,,,,,,,
168,CATHERINE CHEBET ,,,,,,,,0726991827,,catechebet08@yahoo.com,,,,,,,,
169,GRACE NDEGWA,,,,,,,,0721901997,,gndegwa68@gmail.com,,,,,,,,
170,RAYZILLAH ROSE (kid),,,,,,,,0728293285,,N/A,,,,,,,,
171,OLIVIA MBURU(kid),,,,,,,,0724871516,,,,,,,,,,
172,BERNARD KAMAU,,,,,,,,0710946934,,,,,,,,,,
173,JOSEPH MBURU,,,,,,,,0726598143,,,,,,,,,,
174,NICOLE NDUTA(kid),,,,,,,,0721693630,,N/A,,,,,,,,
175,FAIZAH YUSUF(kid),,,,,,,,0708818121,,N/A,,,,,,,,
176,VIVIAN JEPKOECH,,,,,,,,0743612788,,Vivyjepu@gmail.com,,,,,,,,
177,BERNARD KITUR,,,,,,,,0722396371,,,,,,,,,,
178,SHANTARAM,,,,,,,,0740212816,,N/A,,,,,,,,
179,ETHAN NDUNGU(kid),,,,,,,,0798990245,,N/A,,,,,,,,
180,RYAN LESHAN(kid),,,,,,,,0718693031,,N/A,,,,,,,,
181,DENNIS KURIA(kid),,,,,,,,0722751897,,N/A,,,,,,,,
182,ALBERT MWALUMA(kid),,,,,,,,0726148071,,N/A,,,,,,,,
183,DANIEL KIBOS,,,,,,,,0720980745,,,,,,,,,,
184,ANDREW WASWA,,,,,,,,0701734367,,,,,,,,,,
185,NELLY SINGOEI,,,,,,,,0723683613,,,,,,,,,,
186,SUSAN TANUI,,,,,,,,0723559945,,N/A,,,,,,,,
187,DORCAS MOHAMMED,,,,,,,,0729682496,,muguredorcas@yahoo.com,,,,,,,,
188,VIOLA CHIRCHIR,,,,,,,,-,,chirchirvyola@gmail.com,,,,,,,,
189,EVALINE KARIMI,,,,,,,,0723564641,,,,,,,,,,
190,ADRIAN WALWANGA,,,,,,,,0711115000,,,,,,,,,,
191,DORCAS NJOKI,,,,,,,,0721161591,,,,,,,,,,
192,CONCEPTA JEPKEMOI,,,,,,,,0718782438,,,,,,,,,,
193,IAN SAKWA,,,,,,,,0715027999,,,,,,,,,,
194,PIUS MORIASI NYAKUNDI,,,,,,,,0716851937,,,,,,,,,,
195,ESTHER NGENDO,,,,,,,,0725363392,,,,,,,,,,
196,SUSAN NGANGA,,,,,,,,0724799203,,,,,,,,,,
197,BOKE ELIZABETH MUNIKO,,,,,,,,0712991527,,,,,,,,,,
198,EVA KANYINGI,,,,,,,,0724799203,,,,,,,,,,
199,MAMA SHADAM,,,,,,,,0721256067,,,,,,,,,,
200,CHRIS GITAU MWANGI,,,,,,,,0724892000,,,,,,,,,,
201,MARY WAMBUI,,,,,,,,0721622121,,,,,,,,,,
202,EMMANUEL BARONGO,,,,,,,,0708226695,,,,,,,,,,
203,MICHAEL NDEGWA,,,,,,,,0705259506,,,,,,,,,,
204,MUIGA KUHI,,,,,,,,0721735513,,,,,,,,,,
205,ANDREW ALFAYO,,,,,,,,0726353667,,,,,,,,,,
206,JAEL ATUNDO,,,,,,,,0714784235,,,,,,,,,,
207,MWANGI KAMAU,,,,,,,,,,,,,,,,,,
208,JOHN NDEGWA,,,,,,,,0722334044,,,,,,,,,,
209,MAYA GATURI,,,,,,,,0723782990,,,,,,,,,,
210,FIONA CHEROTICH,,,,,,,,0795297678,,,,,,,,,,
211,JAMES KAMELI,,,,,,,,0715593121,,,,,,,,,,
212,NAOMI CHEPKIRUI,,,,,,,,0724533831,,,,,,,,,,
213,OLGA SASSI ESPIRA,,,,,,,,0714423770,,,,,,,,,,
214,NDEGWA,,,,,,,,0726696307,,,,,,,,,,
215,JOHN MUREITHI,,,,,,,,0720297636,,,,,,,,,,
216,SYLVIA ALUNGA,,,,,,,,0721677553,,,,,,,,,,
217,GORDON ATUNDO,,,,,,,,0725719108,,,,,,,,,,
218,NELSON NDUNGU,,,,,,,,0711699355,,,,,,,,,,
219,ELIZABETH WANJIRA,,,,,,,,0710885975,,,,,,,,,,
220,IRENE KANYINGI,,,,,,,,0724799203,,,,,,,,,,
221,KEVIN KANYINGI,,,,,,,,0724799203,,,,,,,,,,
222,REBECCAH ACHUTI,,,,,,,,0713051099,,,,,,,,,,
223,TERESIA WANGARI,,,,,,,,0728948517,,,,,,,,,,
224,FATMA MUMIN,,,,,,,,0713952099,,,,,,,,,,
225,NOHAMED JAHAZ,,,,,,,,0722506626,,,,,,,,,,
226,ANGELINE WANGU JONES,,,,,,,,0722999215,,,,,,,,,,
227,SUSAN MWEMA SIMWELO,,,,,,,,0702849414,,,,,,,,,,
228,SAM DOE OUKO,,,,,,,,0726988110,,,,,,,,,,
229,HITEN PATEL,,,,,,,,0718253216,,,,,,,,,,
230,MIRIAM TALAA,,,,,,,,0725958870,,,,,,,,,,
231,JOYCE MWANGI,,,,,,,,0724754999,,,,,,,,,,
232,JOEL KIMANI,,,,,,,,0706007486,,,,,,,,,,
233,TERESIA NYAKERI,,,,,,,,0790718498,,,,,,,,,,
234,AGATHA OKUMU,,,,,,,,0721256202,,,,,,,,,,
235,KATHAN OMAR,,,,,,,,0793918032,,,,,,,,,,
236,JIMMY MBURU,,,,,,,,0721388573,,,,,,,,,,
237,OBED ABOKO BUNDI,,,,,,,,0726226706,,,,,,,,,,
238,JOEL K. YEGON,,,,,,,,0722459199,,,,,,,,,,
239,HELLEN ACHIENG,,,,,,,,0722312821,,,,,,,,,,
240,TREVINE OUKO,,,,,,,,0758762443,,,,,,,,,,
241,ANNABEL MIDEVA,,,,,,,,0722597090,,,,,,,,,,