Patient Number,Patient Surname,Patient Othernames,Title (i.e. Mr),Date of Birth (i.e. YYYY/MM/DD),Civil Status,Address,Postal Code,City,Phone Number,Alternate Phone,Email,National Id,Religion,Gender (i.e. M or F),Next of Kin Othernames,Next of Kin Surname,N.O.K Phone,N.O.K Phone 2,Ragistration Date
,MICHAEL MUATHE KISINGII,,,,,,,,716559807,,,,,,,,,,2018-04-06
,JAMES WAMBUA KANINI,,,,,,,,715727186,,,,,,,,,,2018-04-09
,KELVIN MBITHI,,,,,,,,721787965,,kkimonyi@gmail.com,,,,,,,,2018-04-09
,MUTISO ANTONY,,,,,,,,722385696,,,,,,,,,,2018-04-09
,MARK THUO NGUNGA,,,,,,,,723825416,,mthuongunga@gmail.com,,,,,,,,2018-04-11
,WILSON MARY NDINDA,,,,,,,,714254039,,,,,,,,,,2018-04-13
,ABDIRAHMAN HASSAN ALI,,,,,,,,720114213,,,,,,,,,,2018-04-13
,MUTUKU GRACE NDITII,,,,,,,,721672096,,,,,,,,,,2018-04-13
,ISRAEL KITHANZE MUSEMBI,,,,,,,,735441751,,,,,,,,,,2018-04-13
,KIVULA NAHASON MASAI,,,,,,,,722927041,,tabithanduku67@gmail.com,,,,,,,,2018-04-13
,GODFFREY MUTUNGA MASILA,,,,,,,,719766379,,,,,,,,,,2018-04-19
,MBAA RICHARD MBUVI,,,,,,,,721150383,,mbaarichie@yahoo.com,,,,,,,,2018-04-18
,BONIFACE MUTISO,,,,,,,,726977454,,,,,,,,,,2018-04-18
,DENNIS MUTINDA MUTHOKA,,,,,,,,718494485,,,,,,,,,,2018-04-24
,KITIVO BONIFACE MUTUA,,,,,,,,722261344,,,,,,,,,,2018-04-24
,PETER PUNGU,,,,,,,,716371930,,,,,,,,,,2018-04-25
,FLORENCE MWENDE MWATHA,,,,,,,,722913762,,fkasym@yahoo.com,,,,,,,,2018-04-25
,MBITHI JENIFFEER MUENI,,,,,,,,719854938,,,,,,,,,,2018-04-26
,NZIOKA MAXWELL,,,,,,,,704457245,,,,,,,,,,2018-04-26
,MBATHI MSYIMI,,,,,,,,721643501,,musyimimm@hotmail.com,,,,,,,,2018-04-26
,JACKLIN JOY KARIMI NJERU,,,,,,,,701085392,,joykarimi5@gmail.com,,,,,,,,2018-04-27
,MUNYAO KASIMU,,,,,,,,717001244,,,,,,,,,,2018-04-27
,MUSANGO VIRGINIAH MBINYA ,,,,,,,,723942573,,vmbinya77@gmail.com,,,,,,,,2018-04-28
,BRANDON MUTUKU,,,,,,,,717293654,,,,,,,,,,2018-04-30
,FRANCISCA NDINDA MUTINDA,,,,,,,,727600560,,,,,,,,,,2018-05-07
,LINET MWIKALI MUNGUTI,,,,,,,,712777586,,lynettemwikali@gmail.com,,,,,,,,2018-05-07
,MBSYA JOHN MUTHENGI,,,,,,,,796270525,,Johnmuthengi@gmail.com,,,,,,,,2018-05-08
,NGULI ELIZABETH WANZA,,,,,,,,726369007,,,,,,,,,,2018-05-10
,YUSUF CHEPKWONY KIPKOECH,,,,,,,,775923200,,,,,,,,,,2018-05-14
,KIKUVI CATHERINE MBULWA,,,,,,,,720625380,,catherinembulwa132@gmail.com,,,,,,,,2018-05-16
,0BURU FLORENCE OWUOR,,,,,,,,704936180,,florenceherire@gmail.com,,,,,,,,2018-05-16
,MUOKA CALEB MWINZI,,,,,,,,735244032,,mwinzijeremiah1@gmail.com,,,,,,,,2018-05-16
,OMAR ABDULLAHI,,,,,,,,724814060,,,,,,,,,,2018-05-18
,BERNARD NZENGYA MAVEKE,,,,,,,,710800428,,bernardmaveke70@gmail.com,,,,,,,,2018-05-18
,MUNYAO ALICE MUTHONI,,,,,,,,711509546,,muthonimunyao@gmail.com,,,,,,,,2018-05-18
,DENNIS NTOIKA  MUNKE,,,,,,,,722753815,,mntoika37@gmail.com,,,,,,,,2018-05-19
,OMAR ABDI BANDO,,,,,,,,728838508,,,,,,,,,,2018-05-19
,ABDULLAHI MOHAMED ABDI,,,,,,,,724543306,,,,,,,,,,2018-05-21
,ABDALLA ASHA TWAHA,,,,,,,,715259341,,ashanttiltwaha@yahoo.com,,,,,,,,2018-05-21
,MUTINDA ELIZABETH MUMBUA,,,,,,,,720070225,,blizmumb@gmail.com,,,,,,,,2018-05-22
,MARY MUTISO MWIKALI,,,,,,,,714367284,,merriemutiso@gmail.com,,,,,,,,2018-05-25
,NGUUTU EDWARD WAMBUA,,,,,,,,720202760,,enguutu@yahoo.com,,,,,,,,2018-05-29
,SUSAN M KYENGO,,,,,,,,725129673,,susankyengo@gmail.com,,,,,,,,2018-05-30
,MUSYOKA RUTH MBINDU,,,,,,,,726266728,,,,,,,,,,2018-05-30
,DORCAS MUENDO,,,,,,,,727472795,,,,,,,,,,2018-05-31
,CHERUIYOT CHARLES KIPKOECH,,,,,,,,725747201,,cjcheruiyot@posta.ke,,,,,,,,2018-06-16
,JACOB WINFRED MWENDE,,,,,,,,725084596,,winfredja2010@gmail.com,,,,,,,,2018-06-18
,MUTUA JOHN DOMINIC,,,,,,,,700113494,,,,,,,,,,2018-06-18
,MUTISYA ANN NDUKU,,,,,,,,723583479,,annenduku2015@gmail.com,,,,,,,,2018-06-27
,MUTUNGA GEOFREY MANG'EE,,,,,,,,714926156,,,,,,,,,,2018-06-28
,MULI BERNARD MULAKO,,,,,,,,727213628,,bernardmulako@gmail.com,,,,,,,,2018-06-29
,FELIX VUNGA,,,,,,,,720512967,,fiezar@gmail.com,,,,,,,,2018-06-29
,LUILU JOSEPH MUSYOKA,,,,,,,,724992359,,jluilu@gmail.com,,,,,,,,2018-06-30
,MUTINDA ANCENT ,,,,,,,,714660264,,,,,,,,,,2018-06-30
,NTIWIA FRIDAH MWIKALI,,,,,,,,701136976,,fridahmwix@gmail.com,,,,,,,,2018-06-30
,WAMBUA THOMAS,,,,,,,,721473387,,mark.makau@yahoo.com,,,,,,,,2018-06-27
,KEMBOI BLESSER JERUTO,,,,,,,,726291415,,rebeccachebet3@gmail.com,,,,,,,,2018-06-30
,ATETI KIPINI TIMOTHY,,,,,,,,792518135,,kipinotimottiy1@gmail.com,,,,,,,,2018-07-02
,MWANGI NJERI,,,,,,,,721879854,,,,,,,,,,2018-07-02
,MUNG'ARO EDDY SIRYA,,,,,,,,721927975,,mungaroeddy@gmail.com,,,,,,,,2018-07-05
,MUNYAO HARRISON MUTUKU,,,,,,,,712925295,,harrisonmutuku548@gmail.com,,,,,,,,2018-07-05
,MUTHOKA AGNES MWELU,,,,,,,,722392880,,,,,,,,,,2018-07-05
,  NDOLO SYLVESTER MUTHOKA,,,,,,,,740271966,,,,,,,,,,2018-07-05
,SAMUEL KIMEU,,,,,,,,713478147,,dmasai94@gmail.com,,,,,,,,2018-07-07
,TOM NATASHA MUTHOKi,,,,,,,,712224666,,,,,,,,,,2018-07-07
,BONFACE KYALO,,,,,,,,704715439,,,,,,,,,,2018-07-07
,KAYESI CHRISTINE MAKUNGU,,,,,,,,721103147,,ckayesi@gmail.com,,,,,,,,2018-07-07
,JOSEPH NYAGA ,,,,,,,,791746416,,,,,,,,,,2018-07-07
,MWANZA STEPHEN MUINDE,,,,,,,,726903979,,stephemmwanza@gmail.com,,,,,,,,2018-07-09
,MERCY NJERI MAINA,,,,,,,,797684269,,mercymaina66@gmail.com,,,,,,,,2018-07-09
,DORCAS MUNYIVA ,,,,,,,,708192654,,,,,,,,,,2018-07-09
,ROSEMARY WANGUI WAITITU,,,,,,,,725904528,,roziewangui24@gmail.com,,,,,,,,2018-07-12
,DAVID KIMENYE,,,,,,,,722211253,,DKIMENYE@GMAIL.COM,,,,,,,,2018-07-12
,NGOSI BENJAMIN KIMEU,,,,,,,,728693642,,benjaminngosi@yahoo.com,,,,,,,,2018-07-12
,KIMILU FREDRICK MUTUKO,,,,,,,,703650295,,fredkimilu@gmail.com,,,,,,,,2018-07-12
,MAINGI URBANUS KITATI ,,,,,,,,725836003,,maingik47@gmail.com,,,,,,,,2018-07-12
,OCHIENG EUGENE OTIENO ,,,,,,,,798784431,,eugeneotieno2929@gmail.com,,,,,,,,2018-07-12
,KWENAR TRACY,,,,,,,,718527993,,kwenartracey4@gmail.com,,,,,,,,2018-07-13
,MAXWELL KAVITA MSEMBI ,,,,,,,,728696976,,,,,,,,,,2018-07-13
,FRANKLIN MUTISYA,,,,,,,,715074377,,franksmutisya2300@live.com,,,,,,,,2018-07-14
,KING'OO JAMES MUOKA  ,,,,,,,,724074010,,kijamuo@gmail.com,,,,,,,,2018-07-16
,NELLY MWAMBKURi,,,,,,,,715588801,,,,,,,,,,2018-07-16
,PETER KELVIN MUTUKU,,,,,,,,727590051,,,,,,,,,,2018-07-17
,MUSAU GODWIN MUTIE,,,,,,,,725414562,,,,,,,,,,2018-07-17
,ABSURA ADAM MOHAMMED ,,,,,,,,710759116,,aabsura@gmail.com,,,,,,,,2018-07-17
,SHANDRACK KIMEU,,,,,,,,721595182,,shadrackkya@gmail.com,,,,,,,,2018-07-17
,JOSEPH MUSAA,,,,,,,,721444575,,musaajoseph@gmail.com,,,,,,,,2018-07-17
,MARY MUENI,,,,,,,,714632913,,royalmums@yahoo.com,,,,,,,,2018-07-19
,MWAKI DORCAS MAKWE,,,,,,,,713921213,,,,,,,,,,2018-07-19
,MWAURA WAIRIMU,,,,,,,,727340720,,,,,,,,,,2018-07-20
,ALLAN THUMBI NGUGI,,,,,,,,721883047,,allan.ngugi97@gmail.com,,,,,,,,2018-07-20
,MUTISYA TIMOTHY,,,,,,,,729480400,,muttimothy@gmail.com,,,,,,,,2018-07-21
,RACHAEL JENIFFER MWENDE,,,,,,,,717822460,,,,,,,,,,2018-07-21
,MAITHA JOHN WEWA,,,,,,,,720590707,,,,,,,,,,2018-07-21
,RUTH VAATI,,,,,,,,707396545,,,,,,,,,,2018-07-26
,MONICA PAUL MUTHOKA ,,,,,,,,722626111,,,,,,,,,,2018-07-26
,JOSEPHINE MUENI,,,,,,,,717644892,,josephinemueni57@yahoo.com,,,,,,,,2018-07-26
,OGOLA LAWRENCE BERNARD,,,,,,,,723783661,,brnogolla@yahoo.com,,,,,,,,2018-07-26
,MUSYOKA ROSALYNE NDUNGE,,,,,,,,716681651,,,,,,,,,,2018-07-28
,TITUS MWORIA,,,,,,,,726351170,,titusmuguna@yahoo.com,,,,,,,,2018-07-29
,KINANU ZAKARIA KITHKA,,,,,,,,710453161,,zkinanu@yahoo.com,,,,,,,,2018-07-30
,KITUKU EVERLYNE MBITHE,,,,,,,,729674801,,mbithekituku@gmail.com,,,,,,,,2018-07-31
,PETER ELIZABETH SOPHIA ,,,,,,,,712746627,,,,,,,,,,2018-07-31
,MUTIE MYA MWENDE,,,,,,,,702482306,,,,,,,,,,2018-07-31
,MBITHI PETER MULWA,,,,,,,,725833326,,,,,,,,,,2018-07-31
,MUSYOKA JANE NDUKU,,,,,,,,721890462,,,,,,,,,,2018-08-02
,MATOLO COSMAS,,,,,,,,798783405,,cosmasmatolo5@gmail.com,,,,,,,,2018-08-02
,MUNGUTI DANIEL MUTHINI,,,,,,,,710459266,,,,,,,,,,2018-08-02
,MUTISYA FAITH NZILANI,,,,,,,,718880835,,nzilanifaith22@gmail.com,,,,,,,,2018-08-03
,BENJAMIN  MBATHA MUINDE,,,,,,,,720667257,,muindebenjamin04@gmail.com,,,,,,,,2018-08-03
,HENRY MUTISO MUSYIMI,,,,,,,,720249241,,henrytiso@yahoo.com,,,,,,,,2018-08-03
,ANN PURITY NJERU,,,,,,,,720275783,,,,,,,,,,2018-08-03
,KEN KIHARA GICHOHI,,,,,,,,727592288,,,,,,,,,,2018-08-04
,OMAR ADAM MOHAMED,,,,,,,,727592288,,,,,,,,,,2018-08-04
,MBAWA CHRISTINE MWIKALI,,,,,,,,724102441,,,,,,,,,,2018-08-06
,JANE MUKUHI MUTURI,,,,,,,,714480217,,mnjokiwambui@gmail.com,,,,,,,,2018-08-06
,CARLOS MUMO,,,,,,,,714052270,,ndupo@yahoo.com,,,,,,,,2018-08-06
,DORAH K.MUTINDA,,,,,,,,705049376,,,,,,,,,,2018-08-07
,GLADYS MUTHEU,,,,,,,,722604654,,,,,,,,,,2018-08-07
,JOYCE NJERI KIMANI,,,,,,,,714859753,,,,,,,,,,2018-08-07
,PATIENCE NDUKU KAVITA,,,,,,,,716250135,,,,,,,,,,2018-08-09
,SHADRACK MUTHIANI MUTHENYA,,,,,,,,717395970,,,,,,,,,,2018-08-14
,LEONARD NZAU KIVIU,,,,,,,,722270775,,,,,,,,,,2018-08-14
,BRENDA PETER NDUNGE,,,,,,,,725000112,,brendapeter07@gmail.com,,,,,,,,2018-08-15
,MARGARET MWIKALI MBITHI,,,,,,,,725550500,,margaretmwikali78@gmail.com,,,,,,,,2018-08-15
,NZINGA ANN NTHITI,,,,,,,,727582385,,,,,,,,,,2018-08-15
,KALOKI DOMINIC MWANZIA,,,,,,,,799178809,,,,,,,,,,2018-08-17
,PURITY  KILONZI MUTHEU,,,,,,,,717228869,,,,,,,,,,2018-08-17
,NDINDI VERONICA MUTHEU,,,,,,,,726202605,,pndindi2002@gmail.com,,,,,,,,2018-08-22
,CHARIS LEAH KYENGO,,,,,,,,729614331,,chariss@gmail.com,,,,,,,,2018-08-24
,STEPHEN HADASSAH SARAH,,,,,,,,727378455,,zipporahmueni12@gmail.com,,,,,,,,2018-08-27
,MWANGANGI TABITHA MUTHEU,,,,,,,,722409874,,tabby.mwangangi@gmail.com,,,,,,,,2018-08-27
,OMAGWE THOMAS ZAKAYO,,,,,,,,723857860,,thomasomagwa@gmail.com,,,,,,,,2018-08-28
,MURUMBI ISAAC,,,,,,,,720063305,,,,,,,,,,2018-08-28
,KISILU ELIZABETH,,,,,,,,727468363,,,,,,,,,,2018-08-28
,KIIO ZIPPORAH WAENI,,,,,,,,712596155,,zippy.waeni@gmail.com,,,,,,,,2018-08-28
,DENNIS MUTISO MUTUKU,,,,,,,,721268371,,,,,,,,,,2018-08-28
,NJUE ESTHER ,,,,,,,,714050446,,njueesther2015@gmail.com,,,,,,,,2018-08-28
,JOSIAH REGINA NGINA,,,,,,,,728545379,,ynginah@yahoo.com,,,,,,,,2018-08-29
,MUTUKU DICKSON MUEMA,,,,,,,,795619920,,muemadickson764@gmail.com,,,,,,,,2018-08-29
,KARIUKI MOSES MURITHI,,,,,,,,708706640,,karishmo92@gmail.com,,,,,,,,2018-08-29
,MWENDO CAROLINE KELI,,,,,,,,717718754,,,,,,,,,,2018-08-30
,MUSYOKA CAROLINE MUTANU,,,,,,,,714693400,,,,,,,,,,2018-08-30
,MUTISO ELIZABETH YULA,,,,,,,,726588681,,,,,,,,,,2018-08-30
,JOY PAULINE MBUVI,,,,,,,,710175302,,,,,,,,,,2018-08-30
,WAMBUA PATRICK MUTUKU,,,,,,,,723443785,,pwambua2010@gmail.com,,,,,,,,2018-09-03
,KISILU BLAIR KIOKO,,,,,,,,711637919,,,,,,,,,,2018-09-05
,KIBAYA PATRICK,,,,,,,,724967001,,,,,,,,,,2018-09-06
,MAUYUVA JAMES MUTINDA ,,,,,,,,724214297,,,,,,,,,,2018-09-06
,MVOKI KELVIN ,,,,,,,,710638760,,kelvinmusa2854@gmail.com,,,,,,,,2018-09-06
,OSORO SAMUEL OMWENGA ,,,,,,,,711603935,,,,,,,,,,2018-09-06
,KISINGU JOSEPH KIOKO ,,,,,,,,711591324,,kisinguj5@gmail.com,,,,,,,,2018-09-07
,MBALUKA KAARI CHARITY,,,,,,,,721937234,,mbalukakaaricharity@gmail.com,,,,,,,,2018-09-07
,KYALO FRADIS MWENDE ,,,,,,,,729870954,,fradismwende2015@gmail.com,,,,,,,,2018-09-07
,NZOMO BETH KANINI,,,,,,,,721565243,,bethkanini@yahoo.com,,,,,,,,2018-09-08
,MELLANIE CHEMWENO JEROTICH,,,,,,,,706027796,,,,,,,,,,2018-09-07
,DOMINIC PATRICIA MEYA,,,,,,,,711186429,,dominicpatricia@yahoo.com,,,,,,,,2018-09-10
,MASWILI SOLOMON DAVID,,,,,,,,721603245,,dv.maswili@gmail.com,,,,,,,,2018-09-08
,NDOLO DANIEL MUIA,,,,,,,,704160713,,,,,,,,,,2018-09-09
,MUTISO NATASHA KATUNGE,,,,,,,,713661187,,,,,,,,,,2018-09-10
,RUKUNGU JOSPHINE MUTHONI,,,,,,,,729095619,,,,,,,,,,2018-09-11
,MUNYWOKI JOSEPH NGUI,,,,,,,,710708397,,nguijoseph18@gmail.com,,,,,,,,2018-09-11
,KATOLA BENJAMIN KIOKO,,,,,,,,728966919,,benkatola@gmail.com,,,,,,,,2018-09-12
,KIIO PRECIOUS ,,,,,,,,722827530,,,,,,,,,,2018-09-12
,NICOLAS MUINDE,,,,,,,,728817494,,,,,,,,,,2018-09-14
,MUCHUI WILDRED,,,,,,,,710240056,,,,,,,,,,2018-09-14
,MUTUA ELIZABETH MBATHA,,,,,,,,719645094,,elizabethmbatha@gmail.com,,,,,,,,2018-09-14
,KIMEU JESCA MWIKALI ,,,,,,,,711809038,,jescakimeu2014@yahoo.com,,,,,,,,2018-09-18
,KIOKO MUSYOKI,,,,,,,,700402482,,,,,,,,,,2018-09-18
,BENSON KARANJA,,,,,,,,722753033,,kariukib@gmail.com,,,,,,,,2018-09-19
,JOSPHINE NDULU,,,,,,,,725228376,,,,,,,,,,2018-09-20
,JEREMIAH KITONE,,,,,,,,722360883,,jeremiahmbithi@yahoo.com,,,,,,,,2018-09-24
,LUCY NYAMBURA,,,,,,,,756929817,,lucymukunu2014@gmail.com,,,,,,,,2018-09-25
,MILELU BARACK,,,,,,,,715591669,,,,,,,,,,2018-09-25
,JAMES WAMBUA MULINGE,,,,,,,,708044077,,,,,,,,,,2018-09-25
,REBECCA WANGECI,,,,,,,,728359158,,rebbecawaikwa@gmail.com,,,,,,,,2018-09-25
,KIMEU WILSON MUANGE,,,,,,,,723534676,,kimeuwilson@gmail.com,,,,,,,,2018-09-26
,WAMBA VINCET MUTINDA,,,,,,,,712100342,,,,,,,,,,2018-09-26
,SIMON MUTUNGA KINGESI,,,,,,,,724554551,,simonkingesi@gmail.com,,,,,,,,2018-09-27
,NJERU FRIDA KAREGI,,,,,,,,721814703,,fridakaregi@yahoo.com,,,,,,,,2018-09-28
,GRACE MUENI MWANGANGI,,,,,,,,707749399,,,,,,,,,,2018-10-11
,WILLBROD MUTEVU NGWAVA,,,,,,,,734024669,,,,,,,,,,2018-10-11
,JACKSON KOMU MUINDI,,,,,,,,724044499,,,,,,,,,,2018-10-11
,JANET MWELU MUTUNGA,,,,,,,,710117425,,,,,,,,,,2018-10-11
,SUSAN MWENZE MUIA,,,,,,,,702896933,,susanmuia01@gmail.com,,,,,,,,2018-10-11
,ELIJAH MAKOLYA MATHULA,,,,,,,,722131150,,,,,,,,,,2018-10-12
,STELLA NIFA LUSULI,,,,,,,,728661319,,stwalusuli@gmail.com,,,,,,,,2018-10-24
,EDNAH MORAA ANKIRI,,,,,,,,711888972,,,,,,,,,,2018-10-27
,LYDIAH OMOLO OWINO,,,,,,,,729235905,,,,,,,,,,2018-11-01
,MILDRED AKINYI,,,,,,,,718500172,,,,,,,,,,2018-11-01
,MILLIE NDUMU MUTUA,,,,,,,,722295283,,andrewmutua@gmail.com,,,,,,,,2018-11-01
,KYULU CELESTINE KAVETE ,,,,,,,,723750347,,celestinekyulu@gmail.com,,,,,,,,2018-11-05
,JOYCEKAVUTHA MUSYOKA,,,,,,,,729963049,,,,,,,,,,2018-11-07
,EUNICE NDIRANGU WANGUI,,,,,,,,715129196,,eunindi@yahoo.com,,,,,,,,2018-11-07
,THOMAS MULELYIA KILONZO,,,,,,,,720977888,,tommulela@gmail.com,,,,,,,,2018-11-07
,STEPHEN OKOTH OKETCH,,,,,,,,724276831,,oketchsteve@gmail.com,,,,,,,,2018-11-07
,ANGELINE MUMBUA MWENGEI,,,,,,,,721581167,,angelinemumbua1@gmail.com,,,,,,,,2018-11-08
,HELLEN MWIKALI MUINDE ,,,,,,,,729430154,,,,,,,,,,2018-11-09
,CONESTESIA MUKULU,,,,,,,,705029925,,,,,,,,,,2018-11-09
,SALLAM MOHAMED,,,,,,,,720324151,,,,,,,,,,2018-11-10
,ALVEEN KIMUTAI,,,,,,,,,,,,,,,,,,2018-11-12
,PEREZ KOSGEI,,,,,,,,720725773,,,,,,,,,,2018-11-12
,RICHRD MBAA MBUVI ,,,,,,,,719230594,,mbaaritchie@gmail.com,,,,,,,,2019-11-12
,MICHAEL SANDA OPIYO,,,,,,,,718334078,,opiyosanda@gmil.com,,,,,,,,2018-11-12
,ANN MBENEKA MWANIA,,,,,,,,726912169,,am.mbeneka@gmail.com,,,,,,,,2018-11-13
,JAMES MWAU,,,,,,,,719475277,,,,,,,,,,2018-11-13
, GIDEON MUTUKU KASIVU,,,,,,,,726208364,,,,,,,,,,2018-11-15
, PAUL KASONGO MUSYIMI,,,,,,,,727431807,,kasongomu@yahoo.com,,,,,,,,2018-11-15
,JULIUS MBURU WATHIGE,,,,,,,,724176162,,wathigejulius@yahoo.com,,,,,,,,2018-11-16
,AUGOSTINE KYALO MUTISO,,,,,,,,722737479,,,,,,,,,,2018-11-17
,ALICE NJAI NJUGUNA,,,,,,,,725750546,,,,,,,,,,2018-11-18
,FELISTER LUKA NDUKU,,,,,,,,727790580,,,,,,,,,,2018-11-22
,AFELINAH MUTHEU KILONZO,,,,,,,,711239493,,,,,,,,,,2018-11-23
,DORIS NTHENTYA MBITHI,,,,,,,,720439089,,dorisnthenya@gmail.com,,,,,,,,2018-11-14
,JONATHAN MUMO MUIA,,,,,,,,727384945,,,,,,,,,,2018-11-14
,YUSUF MULAMA WALUMBE,,,,,,,,712697316,,,,,,,,,,2018-11-16
,JACINTA MUNYAO,,,,,,,,712529531,,,,,,,,,,2018-11-19
,ESTHER MUTUA,,,,,,,,724582966,,,,,,,,,,2018-11-20
,AGNES WAIRIMU KIOKO,,,,,,,,717406948,,agneswakioko@gmail.com,,,,,,,,2018-11-20
,JOSHUA NZUKI MULI,,,,,,,,725308401,,joshuanzukimuli17@gmail.com,,,,,,,,2018-11-20
,ARNOLD KIPKORIR,,,,,,,,727226950,,,,,,,,,,2018-11-23
,TEDDY KIETI MUE,,,,,,,,733458642,,mueteddy@gmail.com,,,,,,,,2018-11-26
,ANASTACIA MUENDO,,,,,,,,700609000,,,,,,,,,,2018-11-26
,CICILY MARUI ,,,,,,,,727881004,,cicilymarui@gmail.com,,,,,,,,2018-11-26
,CYNTHIA NZISA MWENDWA,,,,,,,,727861898,,,,,,,,,,2018-11-29
,VICTOR MUSYIMI MAWEU,,,,,,,,722821920,,,,,,,,,,2018-11-29
,FLORENCE MBETI,,,,,,,,734015375,,flombeti@yahoo.com,,,,,,,,2018-11-29
,JULIA NASERIAN SURUM,,,,,,,,705342510,,juliasurum@gmail.com,,,,,,,,2018-11-30
,GERALD MUSEMBI KYALO ,,,,,,,,724621127,,,,,,,,,,2008-12-03
,TRACY UNDISA MIRIMU ,,,,,,,,713211426,,undisamirimu@gmail.com,,,,,,,,2018-12-01
,LENNY NGUIH,,,,,,,,721611634,,,,,,,,,,2018-12-27
,LOISE NDAKITHI KYULE,,,,,,,,723898404,,,,,,,,,,2018-12-27
,TERESA MUTHEU MUTISO,,,,,,,,726606042,,,,,,,,,,2018-12-28
,JANE MAINA,,,,,,,,722986953,,,,,,,,,,2018-12-31
,JUMA OTIENO,,,,,,,,722476770,,,,,,,,,,2018-12-14
,MUIA KIAMBA,,,,,,,,727620634,,,,,,,,,,2018-12-14
,DOMINIC ZAKAYO,,,,,,,,721982032,,dominiczakayo4@gmail.com,,,,,,,,2018-12-14
,JONATHAN NGILA MUNYAO,,,,,,,,729244897,,m.ngila@yahoo.com,,,,,,,,2018-12-14
,ROZINA BAHATI MUSAU,,,,,,,,716415744,,rozinamusau@gmail.com,,,,,,,,2018-12-15
,RAPHAEL MUSAU MUNEENE,,,,,,,,716415744,,,,,,,,,,2018-12-15
,CHARLES MUTHAMA KYALO,,,,,,,,707683450,,,,,,,,,,2018-12-17
,JOHN MUNYWOKI,,,,,,,,728646564,,,,,,,,,,2018-12-17
,HENRY  MUTISO ,,,,,,,,720249241,,henrytiso@yahoo.com,,,,,,,,2018-12-17
,BARANABUS KYALO KIMAU,,,,,,,,723131492,,barnubaskyalo@gmail.com,,,,,,,,2018-12-17
,ZIPPORAH LUI,,,,,,,,714702640,,,,,,,,,,2018-12-18
,JOSEPH MUTISO,,,,,,,,754942150,,,,,,,,,,2018-12-18
,MARY MUMBUA MUTUNGI,,,,,,,,796310083,,,,,,,,,,2018-12-18
,CINDY NDANU MUTISYA,,,,,,,,721368701,,,,,,,,,,2018-12-18
,AGNETTA SYOMBUA KILUVA,,,,,,,,704331945,,,,,,,,,,2018-12-19
,ISSA HUSSEIN YAZIT,,,,,,,,728761699,,,,,,,,,,2018-12-19
,ALLEN KISILU MULE,,,,,,,,720203553,,allenkmule@gmail.com,,,,,,,,2018-12-21
,MUTUA KELI,,,,,,,,727800041,,kellymutua4@gmail.com,,,,,,,,2018-12-21
,JASPER NDAVI NZUKI,,,,,,,,714781226,,,,,,,,,,2018-12-22
,JULIUS NGEWA MULWA,,,,,,,,722744724,,,,,,,,,,2018-12-31
,GIOVANNI WANJAMA MWANGI,,,,,,,,722361851,,rwanjama@kefri.org,,,,,,,,2018-12-31
,GEOFFREY NGORI MUTHOKA,,,,,,,,723387621,,muthokageoffrey@gmail.com,,,,,,,,2019-01-02
,BERNARD MUTISYA,,,,,,,,722362891,,bmutisya254@gmail.com,,,,,,,,2019-01-03
,PHILIP MULWA NZIKOA,,,,,,,,722837193,,philipmulwanzioka@yahoo.com,,,,,,,,2019-01-03
,IMELDA SYOMBUA MUTETI,,,,,,,,741298601,,imemuteti@gmail.com,,,,,,,,2019-01-04
,JOEL MUMO NDETO,,,,,,,,724747892,,joycengui96@gmail.com,,,,,,,,2019-01-05
,JOSEPH MUTUNE MBINDYO,,,,,,,,712120766,,joseph.mbindyo@gmail.com,,,,,,,,2019-01-04
,SOSPETER NDOLO MUSEMBI,,,,,,,,722593809,,snmusembi@gmail.com,,,,,,,,2019-01-07
,PAUL MUTINDA MUE,,,,,,,,742125222,,paulmue2@gmail.com,,,,,,,,2019-01-07
,MILTON WEKESA MARUTI,,,,,,,,705764075,,,,,,,,,,2019-01-09
,ANN WANJIKU MUTHONI,,,,,,,,771222490,,wanjiku8787@gmail.com,,,,,,,,2019-01-09
,JAMES KYEUZE MTWOTA,,,,,,,,720207081,,,,,,,,,,2020-01-09
,SAMMUEL MUTHAMA KABIRU,,,,,,,,712537425,,samuelmuthuma97@gmail.com,,,,,,,,2019-01-10
,GRACE KAMENE MUTUA,,,,,,,,725210109,,,,,,,,,,2019-01-11
,MIRRIAM MWENDE KIMONYI,,,,,,,,706272711,,,,,,,,,,2019-01-12
,BENARD KYUNDI MBITHI,,,,,,,,726268517,,benkmbithi@gmail.com,,,,,,,,2019-01-14
,PATRICK MAINA NGECHU,,,,,,,,723858760,,,,,,,,,,2019-01-14
,AGNES MUTIO NGEWA,,,,,,,,712812662,,enulani@aol.com,,,,,,,,2019-01-14
,JAMES OKWARO,,,,,,,,723366664,,jimokwaro@gmail.com,,,,,,,,2019-01-14
,JOSPHINE NNGWA MAKAU ,,,,,,,,727169746,,makaujossy@gmail.com,,,,,,,,2019-01-14
,KIGO MWANZO MURIITHI,,,,,,,,724312418,,,,,,,,,,2019-01-15
,WYCLIFF DANIEL OSORO,,,,,,,,711404757,,,,,,,,,,2019-01-16
,LYDIA KIMONDO,,,,,,,,722817725,,,,,,,,,,2019-01-17
,MERCY KIREMA GATWIRI,,,,,,,,728827245,,mercygatwiri91@gmail.com,,,,,,,,2019-01-17
,SAMUEL MUTIA NGAU,,,,,,,,725238599,,samuelmutia@gmail.com,,,,,,,,2019-01-21
,GRACE MWENDWA GATOBU,,,,,,,,729442452,,gracegtb@yahoo.com,,,,,,,,2019-01-23
,TANIA SYOKAU NDERITU,,,,,,,,711614195,,taniasyokau96@gmail.com,,,,,,,,2019-01-19
,ERICK MWENDA MUTEGI,,,,,,,,711441850,,ericktito10@gmail.com,,,,,,,,2019-01-22
,PIUS OLABA EGONDI,,,,,,,,727317882,,olaegondi@gmail.com,,,,,,,,2019-01-22
,BENSON MLWA WAMBUA,,,,,,,,757236085,,,,,,,,,,2019-01-21
,LUCY WANJIRU NGUGI,,,,,,,,712225681,,,,,,,,,,2019-01-26
,WAMBUA SPENCER,,,,,,,,707205890,,,,,,,,,,2019-01-26
,STELLA MATU,,,,,,,,707205890,,,,,,,,,,2019-01-26
,JOSHUA MUNYOKI,,,,,,,,726729933,,,,,,,,,,2019-01-28
,ANNASTASIA MWIKALI MUANGE,,,,,,,,729849887,,mwikalianne20@gmail.com,,,,,,,,2019-01-25
,TIFFANY IMANI MASAKU,,,,,,,,723490572,,,,,,,,,,2019-01-24
,REUBEN KWAKE MASAKU,,,,,,,,723490572,,,,,,,,,,2019-01-24
,GODFFREY MULEI KIOKO,,,,,,,,720643337,,donaldgodfrey.gd@gmail.com,,,,,,,,2019-01-23
,FIDELIS MUSAU MUSEMBI,,,,,,,,727953288,,,,,,,,,,2019-01-30
,ZIPPORAH MWALIMU,,,,,,,,720527760,,zipmwalimu@gmail.com,,,,,,,,2019-01-31
,DORIS MWIKALI MUTHAI,,,,,,,,726304350,,dorismmuthai@gmail.com,,,,,,,,2019-01-31
,MICHAEL WAMBUA MUNYAO,,,,,,,,700400806,,deelaymike7000@gmail.com,,,,,,,,2019-02-01
,CALEB OKELO OMOLLO,,,,,,,,724842897,,,,,,,,,,2019-02-02
,MARGRET KIOKO,,,,,,,,714137196,,bentakioko@gmail.com,,,,,,,,2019-02-04
,EDWIN MWANGANGI MWANIKI,,,,,,,,736646260,,edwinmwank@yahoo.com,,,,,,,,2019-02-04
,DIANA WANGUI WAVCHUKA,,,,,,,,717690032,,,,,,,,,,2019-02-05
,COSMAS NDOTE MUTUNE,,,,,,,,722866981,,,,,,,,,,2019-02-06
,GEORGE MUYSOKI MUTHOKA,,,,,,,,723834979,,gmgmusyoki@gmail.com,,,,,,,,2019-02-06
,WINNIE WAKOYA ASIGE ,,,,,,,,721362359,,,,,,,,,,2019-02-06
,JOSHUA LIMIRI ,,,,,,,,720921346,,jmuthuiru@gmail.com,,,,,,,,2019-02-07
,ERICK KIYIEKA,,,,,,,,722967943,,kiyiekaeric@gmail.com,,,,,,,,2019-02-09
,EDDY OGERO KIYIEKA,,,,,,,,722406302,,,,,,,,,,2019-02-09
,VENDA KYENI,,,,,,,,743265973,,malvenno3@gmail.com,,,,,,,,2019-02-09
,AGNES MATOLO MUKULU,,,,,,,,735442275,,,,,,,,,,2019-02-12
,IRENE WAMBUI GICHIA,,,,,,,,727645657,,wambogichia@gmail.com,,,,,,,,2019-02-15
,JANET BETH SOLOMON,,,,,,,,728629268,,,,,,,,,,2019-02-15
,ELIZABETH MBOVI KITONYI,,,,,,,,715914592,,Elizabethmbovik@gmail.com,,,,,,,,2019-02-15
,MULI KYULU,,,,,,,,727130626,,lkyulu@yahoo.com,,,,,,,,2019-02-16
,AQUISTER KANINI MUTUA,,,,,,,,701227837,,,,,,,,,,2019-02-19
,PERIS MUTENA ,,,,,,,,720176156,,betty82muli@gmail.com,,,,,,,,2019-02-19
,MARY KATUNGA ,,,,,,,,702724277,,,,,,,,,,2019-02-19
,LABAN SAIDIMU KADIKO,,,,,,,,719647510,,labankadiko@gmail.com,,,,,,,,2019-02-20
,FAUSTINE MUSYOKA KYALO,,,,,,,,702860488,,faustinemusyoka46@gmail.com,,,,,,,,2019-02-20
,ELVIS MUTAI NGULA,,,,,,,,721217954,,Palynm@gmail.com,,,,,,,,2019-02-20
,VINCENT OMOLLO OMONDI,,,,,,,,723122231,,cenvin716@gmail.com,,,,,,,,2019-02-21
,JONATHAN KIPTUM YEGON,,,,,,,,736316428,,jonayego@gmail.com,,,,,,,,2019-02-21
,FLORENCE KUNGA ,,,,,,,,701295462,,,,,,,,,,2019-02-22
,ANGEL MWENDE KIATU,,,,,,,,719626813,,mawiagladys00@gmail.com,,,,,,,,2019-02-22
, MARTHA NDULA MUTUA,,,,,,,,700556255,,marthamutua18@gmail.com,,,,,,,,2019-02-25
,ANNE KIMILU,,,,,,,,704286923,,annekasirah@gmail.com,,,,,,,,2019-02-25
,FREDRICK ONDIMA,,,,,,,,727702788,,frdodima@gmail.com,,,,,,,,2019-02-26
,JENNIFER NDONYE,,,,,,,,724607244,,,,,,,,,,2019-02-26
,CONSOLATA NDUNGE NDAVI,,,,,,,,717891117,,consolatandunge28@gmail.com,,,,,,,,2019-02-27
,CATHERINE MUSAU,,,,,,,,727742125,,,,,,,,,,2019-02-28
,BEATRICE MUTINDA NGETO,,,,,,,,113986434,,wambuamuti@yahoo.com,,,,,,,,2019-02-28
,JOSEPH MWANGI NGUBIA,,,,,,,,711323897,,kobia-j@yahoo.com,,,,,,,,2019-02-28
,DENNIS KYENZE MUTUNE,,,,,,,,726235465,,dkmutune@gmail.com,,,,,,,,2019-02-28
, SCHOLASTICA MUTHOKI NZIOKA,,,,,,,,712080191,,,,,,,,,,2019-03-01
,EUNICE MUSYOKA MUTHEU,,,,,,,,728318260,,eunicemutheu@gmail.com,,,,,,,,2019-03-01
,YVONNE MUTHOKA,,,,,,,,721238769,,yvonnemulleia@dt.com,,,,,,,,2019-03-02
,JOY KENDI GITONGA,,,,,,,,721734746,,jgitzo2016@gmail.com,,,,,,,,2019-03-04
,MUTUA MUSYOKA,,,,,,,,712097608,,,,,,,,,,2019-03-06
,DANIEL  MUTUA,,,,,,,,710570165,,dmwambua@nationalbank.co.ke,,,,,,,,2019-03-08
,ONESMUS MWANZA MUTUA,,,,,,,,711860330,,mutuaonesmus200@gmail.com,,,,,,,,2019-03-08
,BETH KANINI NZOMO ,,,,,,,,721565243,,,,,,,,,,2019-03-09
,HARRISON NZOMO,,,,,,,,722387900,,,,,,,,,,2019-03-09
,RUTH MUMBE KIOKO,,,,,,,,799902042,,,,,,,,,,2019-03-11
,LILIAN MWENDE JOSIAH,,,,,,,,720725123,,,,,,,,,,2019-03-11
,DENNIS MWANZA NDUNDA,,,,,,,,700328269,,mwanzadennis88@gmail.com,,,,,,,,2019-03-11
,SARAFINA MWENDO MUINDE,,,,,,,,708732823,,,,,,,,,,2019-05-28
,STEVE JURA ,,,,,,,,724407706,,Jurasteve703@gmail,,,,,,,,2019-05-29
,NOOR ABDI SHEIKH,,,,,,,,726436441,,,,,,,,,,2019-05-31
,JANE MWIKALI MUIA,,,,,,,,715130714,,,,,,,,,,2019-06-04
,MOHAMMED NDAO ,,,,,,,,704979565,,,,,,,,,,2019-06-08
,TOM  HASTING MUNENE,,,,,,,,720856334,,hastings@chak.co.ke,,,,,,,,2019-06-08
,PATRICK MUEMA MUNYAO,,,,,,,,728610517,,pmuema177@gmail.com,,,,,,,,2019-06-10
,ANGELINEA MUOTI MUTISO,,,,,,,,724980046,,angelinamutiso2017@gmail.com,,,,,,,,2019-06-10
,LYDIA MWELU MUEMA,,,,,,,,795510224,,lmuema85@gmail.com,,,,,,,,2019-06-10
,PAUL NZUKI MWANZA,,,,,,,,713407456,,,,,,,,,,2019-06-10
,GEORGE MAITHA ,,,,,,,,720522785,,georgemaitha2015@gmail,,,,,,,,2019-06-10
,ANN MUTAVE MUTISYA,,,,,,,,726782606,,,,,,,,,,2019-06-10
,FRANCISCA MUTUA ,,,,,,,,792406060,,franciscamwau@gmail.com,,,,,,,,2019-06-10
,NATALIE ZEBIA JILLO ,,,,,,,,722121760,,carolynemusiu@gmail.com,,,,,,,,2019-06-11
,PASCAL KILONZ0,,,,,,,,727347045,,pascalmuema1@gmail.com,,,,,,,,2019-06-12
,MERCY MUTHONI GITARI,,,,,,,,702973994,,mercygitari2@gmail.com,,,,,,,,2019-06-17
,IBRAHAM MUIA,,,,,,,,723538147,,,,,,,,,,2019-06-17
,JACKLINE MUTIO MUISYO,,,,,,,,725884279,,jaquelynmaken@gmail.com,,,,,,,,2019-06-17
,BRIAN KIOKO KYALO,,,,,,,,742770306,,reachbriankioko2019@gmail.com,,,,,,,,2019-06-17
,ADAMS OMONDI OKELO,,,,,,,,710299676,,,,,,,,,,2019-06-17
,JOY MUTHOKA  KIOKO,,,,,,,,724607244,,,,,,,,,,2019-06-17
,ANGELINA MUTHEU MWEVA,,,,,,,,714750659,,,,,,,,,,2019-06-18
,TIMOTHY MWOVE MULINGE,,,,,,,,722925224,,,,,,,,,,2019-06-19
,RAHAB KARARI ,,,,,,,,722437645,,rahabkarari@gmail.com,,,,,,,,2019-06-19
,PETER MATUVA,,,,,,,,724750237,,,,,,,,,,2019-06-20
,VICTOR MATHEKA MAILU,,,,,,,,724869969,,,,,,,,,,2019-06-20
,ESTHER MWENDO MAITHA,,,,,,,,711491513,,susankilura3@gmail.com,,,,,,,,2019-06-21
,JACINTA MWIKIALI MWEWA,,,,,,,,710188824,,jmmwikali19@gmail.com,,,,,,,,2019-06-26
,LILIAN WAMUYU MARARO,,,,,,,,721370399,,Lmararoh82@gmail.com,,,,,,,,2019-06-26
,ROSE MUENI MWANIA,,,,,,,,713527057,,rosemwania11@gmail.com,,,,,,,,2019-06-26
,PAUL MUTUA MAKAU,,,,,,,,720735360,,markmakau@gmail.com,,,,,,,,2019-06-27
,HARRISON MUTUKU MUNYAO,,,,,,,,712925295,,,,,,,,,,2019-06-28
,JUSTUS MULINGE DAVID,,,,,,,,710347351,,jusmu1957@gmail.com,,,,,,,,2019-06-28
,FELIX MUSANGO,,,,,,,,724768295,,felixmwanthifmm@gmail.com,,,,,,,,2019-06-29
,KEITH KEPOI,,,,,,,,722944597,,,,,,,,,,2019-07-01
,ISSA ZAYNAB,,,,,,,,798849636,,,,,,,,,,2019-07-01
,JOSEPH MUASYA,,,,,,,,720428251,,josephmuasya.n@gmail.com,,,,,,,,2019-07-02
,ANNA MBULA MUTUA,,,,,,,,722389114,,,,,,,,,,2019-07-02
,KELVIN KIMATHI MUTHEE,,,,,,,,725288791,,kevohkim39@gmail.com,,,,,,,,2019-07-04
,KENEDY SAVU MWANZIA,,,,,,,,799834340,,,,,,,,,,2019-07-04
,MILCAH NDUKU NZIOKA,,,,,,,,722287919,,ndukumilcah2@gmail.com,,,,,,,,2019-07-04
,ROBERT M MUTHEKA,,,,,,,,722200082,,robertmatheka65@gmail.com,,,,,,,,2019-07-04
,BERNARD KITHOKA KIVUVA,,,,,,,,724415056,,kivuvabk@gmail.com,,,,,,,,2019-07-04
,FELIX MUTISYA MUIA,,,,,,,,705776465,,,,,,,,,,2019-07-05
,JENNIFER KATUKU,,,,,,,,717578806,,,,,,,,,,2019-07-05
,BENEDETTA MUTHEU KIMEU,,,,,,,,714200116,,kimeumutheu@gmail.com,,,,,,,,2019-07-08
,FAITH TANUI,,,,,,,,727613129,,fjtanui@gmail.com,,,,,,,,2019-07-08
,PILLES NTHUKA KIMONGO,,,,,,,,713715580,,,,,,,,,,2019-07-09
,JACKLINE AKINYI RIAGA,,,,,,,,708285444,,,,,,,,,,2019-07-09
,MUSYOKA MAKAU,,,,,,,,722833938,,,,,,,,,,2019-07-09
,DAMARIS KIOKO,,,,,,,,705444485,,damariskioko1994@gmail.com,,,,,,,,2019-07-09
,JACKSON MUTISYA MUNANDI,,,,,,,,721655941,,,,,,,,,,2019-07-10
,SUSAN NDUNDGE MBALUTO,,,,,,,,726354852,,,,,,,,,,2019-07-10
,DAVID MUNGAI NJAU,,,,,,,,717465052,,davidnjmungai@gmail.com,,,,,,,,2019-07-11
,EUNICE NDUNGE MULU,,,,,,,,725327186,,,,,,,,,,2019-07-12
,JACKSON MUTUA MWEKU,,,,,,,,716727529,,,,,,,,,,2019-07-12
,CARREN MUSUVIWA WAMBUA,,,,,,,,713757935,,Mulonziharrison@gmail.com,,,,,,,,2019-07-12
,ANNE MINOO MUTHIANI,,,,,,,,727739331,,annminoom@gmail.com,,,,,,,,2019-07-13
,JOY NDUKU KYANIA,,,,,,,,722404113,,,,,,,,,,2019-07-13
,SUSAN ANYANGO NGONGA,,,,,,,,710375754,,susanngonga42@yahoo.com,,,,,,,,2019-07-15
,SOSPETER MAUREN MWENDE,,,,,,,,721312215,,,,,,,,,,2019-07-15
,GEORGE GITAU WANDETO,,,,,,,,722339718,,,,,,,,,,2019-07-15
,MESHACK MUTUKU MUMO,,,,,,,,728932817,,mutukumeshack2@gmail.com,,,,,,,,2019-07-15
,MIRRIAM MUGWIKA,,,,,,,,726105861,,,,,,,,,,2019-07-15
,CHRISTINE NGII NATHAN,,,,,,,,720746852,,,,,,,,,,2019-07-15
,PAUL NGEI KAMIA,,,,,,,,714278875,,,,,,,,,,2019-07-16
,NJOROGE NYOIKE,,,,,,,,722980187,,,,,,,,,,2019-07-18
,MUSILI MUKEKU,,,,,,,,726827988,,,,,,,,,,2019-07-19
,MEGAN MUTHEU MUSYOKA,,,,,,,,706449628,,meganmusyoka@gmail.com,,,,,,,,2019-07-20
,MAUMU NGEI,,,,,,,,719532623,,maumungei2011@gmail.com,,,,,,,,2019-07-20
,ELIZABETH JUDITH KOLA,,,,,,,,720029977,,kolaliz2011@gmail.com,,,,,,,,2019-07-20
,STEPHEN MUTEMI ,,,,,,,,701667189,,stephensyano@gmail.com,,,,,,,,2019-07-23
,EZEKIEL CHERUIYOT KIPRUGUT,,,,,,,,727519239,,,,,,,,,,2019-07-29
,FRANCIS MUINDI MBITHI,,,,,,,,720803490,,francismuindi6@gmail.com,,,,,,,,2019-07-29
,MERCY MUTHIKWA NZOKA,,,,,,,,716071627,,memuthikwa@gmail.com,,,,,,,,2019-07-30
,DAVID KIILU MATIVO,,,,,,,,733796290,,,,,,,,,,2019-07-30
,LEVINE WAYNE MUIGAI,,,,,,,,704680502,,levinewayne20@gmail.com,,,,,,,,2019-07-30
,AGELA MWIKALI SIVA,,,,,,,,710688803,,,,,,,,,,2019-07-30
,SHADRACK MWINZI,,,,,,,,711908024,,,,,,,,,,2019-07-31
,VERONICA MUTUKU,,,,,,,,758650643,,,,,,,,,,2019-08-01
,LIAM LOKI,,,,,,,,725431134,,,,,,,,,,2019-08-01
,PAUL MUUO MWANZIA,,,,,,,,725518483,,,,,,,,,,2019-08-02
,SHANTELLE MUENI MULI,,,,,,,,720687713,,fkitiri@co-opbank.co.ke,,,,,,,,2019-08-02
,ZABLON JUMA MURUTU,,,,,,,,708721079,,zablonmurutu@gmail.com,,,,,,,,2019-08-05
,EUNICE MUTHEU KIMEU,,,,,,,,721880430,,eunicemutheu23@gmail.com,,,,,,,,2019-08-05
,LYDIA KATUNI BENJAMIN,,,,,,,,711220881,,,,,,,,,,2019-08-05
,SAMUEL MUTINDA MUTUKU,,,,,,,,718294881,,mutukusamuel01@gmail.com,,,,,,,,2019-08-05
,GABRIELLA MUTHEU MUENDO,,,,,,,,723071030,,,,,,,,,,2019-08-06
,JOYCE KATHILU MUASYA,,,,,,,,720831056,,joyce@gmail.com,,,,,,,,2019-08-06
,THERESA MBENEKA MUTHINI,,,,,,,,757380169,,,,,,,,,,2019-08-06
,STEPHEN MBURU NJENGA ,,,,,,,,720250440,,stevejenga1@gmail.com,,,,,,,,2019-08-08
,JOHN MAITHYA MUSAU,,,,,,,,727116536,,,,,,,,,,2019-08-08
,ESTHER NTHENYA NGUNDO,,,,,,,,715164955,,esthernthenya87@gmail.com,,,,,,,,2019-08-09
,JOSEPH KIVANGA NZOVILA,,,,,,,,721698456,,,,,,,,,,2019-08-10
,DAVID MALELU PETER,,,,,,,,727293782,,,,,,,,,,2019-08-13
,FAITH MBITHE,,,,,,,,728629541,,,,,,,,,,2019-08-13
,LUCY NDUNGE MUSYOKA,,,,,,,,729423340,,lucymusyoka34@gmail.com,,,,,,,,2019-08-13
,MARK MUMO MULI,,,,,,,,712552036,,,,,,,,,,2019-08-13
,AGNES MUTEE ,,,,,,,,726086042,,,,,,,,,,2019-08-13
,FAITH WAIRIMU BERNARD,,,,,,,,702211177,,,,,,,,,,2019-08-14
,ANNAH MULI MBULA,,,,,,,,702716058,,,,,,,,,,2019-08-14
,AHADI RYAN,,,,,,,,722458891,,,,,,,,,,2019-08-15
,MARGARET KAMANTHE,,,,,,,,722654011,,mnyenze@gmail.com,,,,,,,,2019-08-15
,JOSHUA NDAMBUKI IMARA,,,,,,,,722941655,,Deejayjosh.DJ@gmail.com,,,,,,,,2019-08-15
,CHARLES MUTISYA MWANZIA,,,,,,,,706433929,,charlesmwanzia6@gmail.com,,,,,,,,2019-08-16
,GLADYS WANJIKU WAMBUGU,,,,,,,,702913203,,glatshikoh@gmail.com,,,,,,,,2019-08-17
,ANGELA KYALO,,,,,,,,722312358,,,,,,,,,,2019-08-19
,DOUGLAS KYALO,,,,,,,,796612177,,musyimikyalo2018@gmail.com,,,,,,,,2019-08-19
,GRACE NZIOKI,,,,,,,,719554629,,,,,,,,,,2019-08-20
,SAMSAN MATOLA MUSAU,,,,,,,,728274423,,,,,,,,,,2019-08-22
,LILIAN OCHIENG,,,,,,,,722172549,,,,,,,,,,2019-08-22
,NAOMI WAWERU,,,,,,,,716239909,,Naomi.waweru@gmail.com,,,,,,,,2019-08-23
,JACKSON NGATIA MINGORU,,,,,,,,724225028,,,,,,,,,,2019-08-26
,CYRUS WAMBUA MUTINDIA,,,,,,,,715373925,,,,,,,,,,2019-08-26
,IRENE NDUNGE MULATYA,,,,,,,,711596624,,,,,,,,,,2019-08-27
,DOMINICA MUSENGYA KITHOME,,,,,,,,720025394,,dominicakithome@gmail.com,,,,,,,,2019-08-27
,JOSPHAT MOKOIT,,,,,,,,721140273,,jsmokoit@gmail.com,,,,,,,,2019-08-28
,RODAH SYOMBUA NZIOKI,,,,,,,,702037714,,,,,,,,,,2019-08-28
,TABITHA MUNYIVA KIKUVI,,,,,,,,700785646,,,,,,,,,,2019-08-28
,ABDIHAKIM ABDULLAHI ,,,,,,,,791972314,,,,,,,,,,2019-08-28
,ISRAE MICH OMONDI,,,,,,,,722567121,,finnomosh@gmail.com,,,,,,,,2019-08-28
,CHICHI AMOR OMONDI,,,,,,,,722567121,,finnomosh@gmail.com,,,,,,,,2019-08-28
,PHILP MAKAU NZIOKA,,,,,,,,721651848,,philipmakau1976@gmail.com,,,,,,,,2019-08-30
,DAVID MULI,,,,,,,,720928522,,nmuli316@gmail.com,,,,,,,,2019-09-02
,CAROLINE WANZA MBALUKA,,,,,,,,717931682,,carolinewanza92@gmail.com,,,,,,,,2019-09-02
,MARY MBATHA MUASA,,,,,,,,705600649,,,,,,,,,,2019-09-03
,PETER KASANGA MATATA,,,,,,,,724413959,,petrmata@yahoo.com,,,,,,,,2019-09-03
,MERCY LOISI TITUS,,,,,,,,713261099,,,,,,,,,,2019-09-05
,CHRISTABEL WANZA KIMEU,,,,,,,,711512510,,kimeuchristabel@gmail.com,,,,,,,,2019-09-07
,IAN MUTUA MUTETI,,,,,,,,718732847,,,,,,,,,,2019-09-09
,JOASH ONSARE,,,,,,,,700282197,,onsareja@gmail.com,,,,,,,,2019-09-09
,ISAAC MUSYOKI,,,,,,,,721589404,,,,,,,,,,2019-09-09
,FAITH MWIKALI PETER,,,,,,,,724454955,,,,,,,,,,2019-09-11
,ULDAH ATIENO,,,,,,,,721974849,,uldahatieno@gmail.com,,,,,,,,2019-09-11
,JACKSON MUTINDA,,,,,,,,721210873,,mutukujm33@gmail.com,,,,,,,,2019-09-12
,FELISTER NDUKU MUTHOKA,,,,,,,,704709935,,,,,,,,,,2019-09-13
,NAOMI MBATHA MUTIE,,,,,,,,726730490,,,,,,,,,,2019-09-13
,EUNICE NGINA MUSYA,,,,,,,,716371866,,,,,,,,,,2019-09-13
,TABITHA MYAMAI IVALI,,,,,,,,727373400,,,,,,,,,,2019-09-14
,BENSON MUIA,,,,,,,,712578592,,,,,,,,,,2019-09-16
,ELIZABETH KYALO,,,,,,,,716847345,,,,,,,,,,2019-09-01
,MAGDALINE SOILA KANTAI,,,,,,,,703734489,,kantaisoila@yahoo.com,,,,,,,,2019-09-16
,CALEB MWENDWA,,,,,,,,718440722,,calebmutwii@gmail.com,,,,,,,,2019-09-16
,SYLVESTER MUTUA KELI,,,,,,,,727800041,,kellymutua4@gmail.com,,,,,,,,2019-09-17
,ALEX KITALA,,,,,,,,723516881,,,,,,,,,,2019-09-17
,JOSPHAT KIMEU,,,,,,,,725235582,,,,,,,,,,2019-09-18
,DENZEL KIKETI MAKAU,,,,,,,,715391728,,,,,,,,,,2019-09-19
,SALOME MUSYOKA,,,,,,,,713188204,,,,,,,,,,2019-09-19
,JACINTA KALUNDU PETER,,,,,,,,799664457,,,,,,,,,,2019-09-19
,NORBERT WAMBUA NZIOKA,,,,,,,,728135613,,norbwamb@gmail.com,,,,,,,,2019-09-21
,REBECCA NKAI,,,,,,,,724106938,,rebeccaraayio@gmail.com,,,,,,,,2019-09-23
,MONICA NGALI MUNGAITHI,,,,,,,,722570344,,,,,,,,,,2019-09-23
,TERESA MWONGELA MUMBI,,,,,,,,726344497,,,,,,,,,,2019-09-24
,TITUS TITO MUSYOKA,,,,,,,,721648587,,,,,,,,,,2019-09-24
,FRIDAH NDANU MUENDO,,,,,,,,704580253,,fridahndanu7@gmail.com,,,,,,,,2019-09-25
,WINNIFRED KALEKYE MUTISYA,,,,,,,,720850133,,winfredkalekye90@gmail.com,,,,,,,,2019-09-26
,STACY MUMBUA,,,,,,,,720746852,,CHRISTINENATHAN536@GMAIL,,,,,,,,2019-09-26
,JOSEPH KIVANGA,,,,,,,,721698456,,,,,,,,,,2019-09-27
,FAITH MULIMBI NZUKI,,,,,,,,711444269,,faithnzuki82@gmail.com,,,,,,,,2019-09-28
,FLORENCE NJOKI KARUMAINDO,,,,,,,,700336004,,floneema@gmail.com,,,,,,,,2019-09-30
,GEORGE SILA,,,,,,,,710719299,,,,,,,,,,2019-09-30
,EMMANUEL NGWAA KANINI,,,,,,,,798382520,,emmanuelngwaa@gmail.com,,,,,,,,2019-09-30
,ELSIE KAVINDU KYULI,,,,,,,,721622022,,,,,,,,,,2019-09-30
,DANIEL KALOKI,,,,,,,,700698848,,,,,,,,,,2019-10-01
,PAULINE JUMA,,,,,,,,712298029,,,,,,,,,,2019-10-01
,CATHERINE MUTUA,,,,,,,,719500995,,,,,,,,,,2019-10-02
,BEATRICE KISANGU MUTOMO,,,,,,,,728551065,,,,,,,,,,2019-10-02
,GERALD LUCKY MBITHI,,,,,,,,725354224,,gerald.mbithi3@gmail.com,,,,,,,,2019-10-03
,ALFRED NZAU MUIA,,,,,,,,724439614,,alfrednzau@yahoo.com,,,,,,,,2019-10-03
,DOREEN MAKENAH KINOTI,,,,,,,,721882773,,kinotidoreen@yahoo.com,,,,,,,,2019-10-04
,THERESIA MBAIKA MBYULYA,,,,,,,,711485155,,,,,,,,,,2019-10-05
,NAOMI KEMUNTO TINEGA,,,,,,,,714327099,,,,,,,,,,2019-10-07
,DONATA MURUGI NJAGI,,,,,,,,711164323,,,,,,,,,,2019-10-07
,PENNINAH MUTUA,,,,,,,,700528643,,,,,,,,,,2019-10-07
,ELIJAH MUTUNGA MUSAU,,,,,,,,724649392,,,,,,,,,,2019-10-07
,JAMES MURINGU KAMAU,,,,,,,,724560883,,jameskamausir@gmail.com,,,,,,,,2019-10-07
,MARY KATIWA MBULU,,,,,,,,729683310,,,,,,,,,,2019-10-08
,JAYNE SHANYISA MUEMA,,,,,,,,722840708,,shanyisa@gmail.com,,,,,,,,2019-10-08
,JAMES LETOWUON MATUYIA,,,,,,,,711627541,,Jeymohtosh@gmail.com,,,,,,,,2019-10-09
,PHOEBE MUTAVE NDEMWA,,,,,,,,724562524,,fibindeto@gmail.com,,,,,,,,2019-10-11
,MILIKA KASYOKI,,,,,,,,729791187,,,,,,,,,,2019-10-11
,CONERIUS MAITHYA MULONZI,,,,,,,,714943486,,,,,,,,,,2019-10-12
,WINFRED MWENDE JAMES,,,,,,,,721678991,,Winnymwende46@gmail.com,,,,,,,,2019-10-14
,BONIFACE MUNGAU ,,,,,,,,724542874,,bonifacemungau120@gmail.com,,,,,,,,2019-10-14
,SHEDRACK MUOKI MUSYOKA,,,,,,,,712965415,,shedrackmusyoka93@gmail.com,,,,,,,,2019-10-16
,ESTHER WATURI KINGORI,,,,,,,,725250747,,estherwaturi@gmail.com,,,,,,,,2019-10-16
,PRECIOUS WAMAI,,,,,,,,725913593,,esbonw@gmail.com,,,,,,,,2019-10-17
,EVELYN KASWII MUTUKU,,,,,,,,726990765,,,,,,,,,,2019-10-18
,SIMON MWANTHI MWANGANGI,,,,,,,,722795656,,simwangangi@yahoo.com,,,,,,,,2019-10-19
,JOHN MUTISYA KIMEU,,,,,,,,727621162,,johnmutisya79@gmail.com,,,,,,,,2019-10-22
,FRANCISCA KALONDU MUTHUKU,,,,,,,,720760311,,franciscamutiek@yahoo.com,,,,,,,,2019-10-22
,ELIZABETH MWENDE MUOKI,,,,,,,,720419941,,,,,,,,,,2019-10-22
,ANNPURITY KIENDE GITURA,,,,,,,,725834546,,ann.gitura@gmail.com,,,,,,,,2019-10-22
,STELLAMARIS MUTISO,,,,,,,,729683322,,,,,,,,,,2019-10-22
,ESTHER WANJIRA KARANI,,,,,,,,706891016,,shaniceeston@gmail.com,,,,,,,,2019-10-23
,RUTH WANJOHI WANJOHI,,,,,,,,701333596,,,,,,,,,,2019-10-24
,CAROLINE HINGA,,,,,,,,722496034,,josephinewairimu87@gmail.com,,,,,,,,2019-10-24
,ARON KISILU MATATU,,,,,,,,728204409,,aaronmalatalu@gmail.com,,,,,,,,2019-10-24
,DOMITILA WANZA MUTUA,,,,,,,,722720196,,,,,,,,,,2019-10-25
,VINCENT MUGENDI MARANG,,,,,,,,721524710,,,,,,,,,,2019-10-25
,MARY KIVAI ,,,,,,,,723982337,,,,,,,,,,2019-10-25
,BERNARD NDUTU,,,,,,,,726048260,,ndutuben@gmail.com,,,,,,,,2019-10-28
,JOEL WAMBUA,,,,,,,,714464492,,,,,,,,,,2019-10-28
,PHILIP KIOKO MUTUA,,,,,,,,757668147,,,,,,,,,,2019-10-28
,ADAM SHISIA,,,,,,,,722879748,,adamshizie@gmail.com,,,,,,,,2019-10-28
,ESTHER MUMBUA MUINDE,,,,,,,,702414581,,esthermuinde7@gmail.com,,,,,,,,2019-10-28
,JOSEPH KIOKO KIMATU,,,,,,,,718805598,,josephkimatu59@gmail.com,,,,,,,,2019-10-29
,EVANS HAGGAI ALUBIA,,,,,,,,725481474,,ealubia@gmail.com,,,,,,,,2019-10-29
,PETER KIOKO MWOLOLO,,,,,,,,720300126,,,,,,,,,,2019-10-29
,ABEL MATOKE MOTANYA,,,,,,,,727363732,,abel.motanya@yahoo.com,,,,,,,,2019-10-30
,ESTHER MORAA JOB,,,,,,,,702448337,,,,,,,,,,2019-10-30
,RUTH NDUKU MBAI,,,,,,,,707065519,,,,,,,,,,2019-11-01
,SAMMY NGUI KIMINZA,,,,,,,,716015317,,,,,,,,,,2019-11-01
,VERONICA MUTUMI MUEKE,,,,,,,,728969808,,veromueke@gmail.com,,,,,,,,2019-11-02
,ALEX FERGUSON,,,,,,,,721687623,,s.maingi778@gmail.com,,,,,,,,2019-11-04
,FAITH LOCO JAMES,,,,,,,,791818955,,,,,,,,,,2019-11-06
,ALEXIA KANYAA MUTINDA,,,,,,,,728401836,,,,,,,,,,2019-11-06
,AWESOME MUTHEU,,,,,,,,703740378,,,,,,,,,,2019-11-07
,BENARD KIOKO MULWA,,,,,,,,722482794,,bmulwa11@gmail.com,,,,,,,,2019-11-08
,FELIX ANYONA NYAKUNDI,,,,,,,,727839422,,anyonafelix77@gmail.com,,,,,,,,2019-11-08
,PETER NG'ANG'A NYAMBURA,,,,,,,,768393729,,,,,,,,,,2019-11-11
,MARK SAKAJA,,,,,,,,702501854,,,,,,,,,,2019-11-11
,RACHAEL SYOKAU ERIC,,,,,,,,714139702,,rachaeleric4@gmail.com,,,,,,,,2019-11-12
,LISA WAVINYA KIOKO,,,,,,,,715870694,,,,,,,,,,2019-11-12
,FIDELIA KATHEU SILA,,,,,,,,719496695,,,,,,,,,,2019-11-12
,BLESSING NDUKU KIOKO,,,,,,,,715870696,,,,,,,,,,2019-11-12
,JOYCE MUTONO MUTIE,,,,,,,,733343274,,,,,,,,,,2019-11-14
,ABIGAEL WAIRIMU,,,,,,,,720631196,,,,,,,,,,2019-11-15
,JANET NZEMBI KIMEU,,,,,,,,704183608,,,,,,,,,,2019-11-16
,LEIGHZA MUGO,,,,,,,,792703331,,,,,,,,,,2019-11-16
,JULIANA WAVINYA MUTUNGI,,,,,,,,726100444,,jwmutungi@nationalbank.loca,,,,,,,,2019-11-18
,WINFRED NTHAMBI NGUIH,,,,,,,,724270496,,chriswin2000@gmail.com,,,,,,,,2019-11-19
,LILIAN NJERI MUTUNGI,,,,,,,,722726031,,njerimutungi@gmail.com,,,,,,,,2019-11-19
,CHRIS MAINA GICHUKI,,,,,,,,722602771,,,,,,,,,,2019-11-19
,ALFONCE MUSAU KALUVA,,,,,,,,721681073,,,,,,,,,,2019-11-19
,EMMA WAVINYA MUTUA,,,,,,,,722663534,,dmkiveli@gmail.com,,,,,,,,2019-11-19
,FAITH WANZA NDUKU,,,,,,,,715305575,,,,,,,,,,2019-11-20
,WILMA CHERUTO LOYATUM,,,,,,,,719160055,,w.loyatum@gmail.com,,,,,,,,2019-11-21
,JOYCE MUTONO MUTUA,,,,,,,,795717626,,faithkeini@gmail.com,,,,,,,,2019-11-22
,GEORGINAH MUNANIE KALASA,,,,,,,,718370304,,georginahmunanie991@gmail.com,,,,,,,,2019-11-22
,SCHOLASTICA NDUNGE MUSYOKI,,,,,,,,711653986,,,,,,,,,,2019-11-22
,DORINAH MUSENGYA MUSYOKI,,,,,,,,711653986,,,,,,,,,,2019-11-22
,NELIUS KILOKO MUSYOKI,,,,,,,,711653986,,,,,,,,,,2019-11-22
,JANE WACERA MAWEU,,,,,,,,726121385,,,,,,,,,,2019-11-25
,CALEB MUOKI KYALO,,,,,,,,721458972,,,,,,,,,,2019-11-25
,MELVIN MWENDWA,,,,,,,,723018984,,,,,,,,,,2019-11-25
,MARK MUIKIIO KITUKU,,,,,,,,721452540,,,,,,,,,,2019-11-25
,MESHACK KALOKI NDETI,,,,,,,,706016966,,,,,,,,,,2019-11-25
,HENRY MBUVA ,,,,,,,,795016889,,,,,,,,,,2019-11-25
,BOSCO GITONGA IRERI,,,,,,,,715892842,,ireribosco088@gmail.com,,,,,,,,2019-11-26
,STACEY AKEYO ODUNDO,,,,,,,,721912981,,odundoK1@gmail.com,,,,,,,,2019-11-27
,MARY MUENI MUTETI,,,,,,,,727160731,,,,,,,,,,2019-11-27
,FLORENCE KOKI MUASA,,,,,,,,717226744,,,,,,,,,,2019-11-28
,DYLAN MUOTI KYALO,,,,,,,,720568088,,manthisteve556@gmail.com,,,,,,,,2019-12-02
,STEPHEN KITHUKA MANTHI,,,,,,,,720568088,,manthisteve556@gmail.com,,,,,,,,2019-12-02
,MARK KINYUA MWENDA,,,,,,,,726281435,,,,,,,,,,2019-12-03
,PHILOMENA NGINA MAVUTI,,,,,,,,719107820,,,,,,,,,,2019-12-04
,ZIPPORAH KYALO,,,,,,,,726391923,,zipramkai@gmail.com,,,,,,,,2019-12-05
,FRIDAH KAGENDO,,,,,,,,717257980,,,,,,,,,,2019-12-05
,SIMON MWANZA MWANGANGI,,,,,,,,712881441,,symohmzoo8@gmail.com,,,,,,,,2019-12-10
,FAITH NEENE KIOKO,,,,,,,,708410801,,kiokofaith@gmail.com,,,,,,,,2019-12-10
,DAVID KIOKO MUTUKU,,,,,,,,724698529,,,,,,,,,,2019-12-10
,JOSEPH MUTISYA MAINGI,,,,,,,,710177951,,,,,,,,,,2019-12-13
,GEORGINA KITAVI KATAVI,,,,,,,,710230947,,georginakitavi@gmail.com,,,,,,,,2019-12-16
,JEFF MUEMA MUTHINI,,,,,,,,728440403,,,,,,,,,,2019-12-18
,ERIC MULWA KYANIA,,,,,,,,729892413,,ericmulwa71@gmail.com,,,,,,,,2019-12-20
,JOEL MUTINDA MUTHIANI,,,,,,,,727291323,,,,,,,,,,2019-12-22
,RAJASVINI NDANU MUTUA,,,,,,,,728670443,,,,,,,,,,2019-12-23
,GRACE MBENGE MWOKI,,,,,,,,791878503,,,,,,,,,,2019-12-23
,JACKLINE KALEKYE MUTHAMA,,,,,,,,720008315,,,,,,,,,,2019-12-23
,PEACE MWENDE WAMBUA,,,,,,,,725934480,,,,,,,,,,2019-12-30
,MAXWELL KIOKO MWIKYA,,,,,,,,722343840,,,,,,,,,,2010-01-02
,ERVIN MAMAI,,,,,,,,794653311,,,,,,,,,,2020-01-04
,DAVIDSON MWENDWA ALOIS,,,,,,,,720333432,,,,,,,,,,2020-01-04
,ERICK NGONZO KIMULI,,,,,,,,726046111,,ERICKKIMULI@GMAIL.COM,,,,,,,,2020-01-06
,ANDREW KELI MUIA,,,,,,,,716628148,,ANDREWMUIAK@GMAIL.COM,,,,,,,,2020-01-06
,ANNASTACIA MUENI,,,,,,,,720015874,,,,,,,,,,2020-01-06
,MARICELLA MUTIO,,,,,,,,720952082,,,,,,,,,,2020-01-06
,RUTH MONCHARI BONUKE,,,,,,,,716009777,,RUTHBONUKE1@GMAIL.COM,,,,,,,,2020-01-06
,ALVIN MWANZIA,,,,,,,,729727451,,,,,,,,,,2020-01-06
,CECILIA MATHEKA,,,,,,,,711863455,,,,,,,,,,2020-01-11
,NASHIA NDUNGE  MUNYAMBU,,,,,,,,704183547,,,,,,,,,,2020-01-13
,BEATRICE MUKUI KILONZO,,,,,,,,714384317,,,,,,,,,,2020-01-16
,CORLETTAH MULU,,,,,,,,721231991,,,,,,,,,,2020-01-16
,JOSHUA NZIOKA MUIE,,,,,,,,710241218,,JOSHUAMULE89@GMAIL.COM,,,,,,,,2020-01-16
,FAITH KILONZO,,,,,,,,711941321,,,,,,,,,,2020-01-17
,JEMIMAH MUCHAI,,,,,,,,721247437,,,,,,,,,,2020-01-20
,PHILOMENA MWENDE KAVITI,,,,,,,,72292942,,,,,,,,,,2020-01-21
,FOENICA JEMUTAI KIPLETING,,,,,,,,724117655,,JEMUTAIFOENICA@GMAIL.COM,,,,,,,,2020-01-21
,RAPHAEL MULINGE NYAMAI,,,,,,,,720477556,,,,,,,,,,2020-01-23
,JACINTA MUMBUA,,,,,,,,720333432,,JACY.MUMBUA@GMAIL.COM,,,,,,,,2020-01-23
,DIANAH GACHERI GUANTAI,,,,,,,,721699049,,,,,,,,,,2020-01-24
,NICHOLAS NJOROGE,,,,,,,,712280711,,NJENJENJOROGE3@GMAIL.COM,,,,,,,,2020-02-01
,FRANCIS KIERI NGECA,,,,,,,,701009993,,,,,,,,,,2020-02-01
,ANTONY NZOMO,,,,,,,,723506544,,,,,,,,,,2020-02-01
,VERONICA NGAUKI,,,,,,,,728762254,,,,,,,,,,2020-02-01
,ANNAH MUIA,,,,,,,,712239707,,,,,,,,,,2020-02-05
,DORCAS ATIENO,,,,,,,,700042027,,DORCASATY@GMAIL.COM,,,,,,,,2020-02-07
,BANCY WANGARI  MUTHONI,,,,,,,,704554745,,BANCIEWANGARI06@GMAIL.COM,,,,,,,,2020-02-18
,MARTIN MALITI MAUYE,,,,,,,,720870266,,MAUYE46@GMAIL.COM,,,,,,,,2020-02-18
,CAROLINE KANINI MUTUA,,,,,,,,713569403,,CAROLINE.KASMALL@GMAIL.COM,,,,,,,,2020-02-11
,FLORAH NDINDA MUTUA,,,,,,,,721360206,,,,,,,,,,2020-02-18
,MAXWELL GIKUMA MUNGATHIA,,,,,,,,700897817,,MGIKUMA@GMAIL.COM,,,,,,,,2020-02-12
,DIANA WAMBUI MUTURI,,,,,,,,726397000,,TUSHWAMBUI@GMAIL.COM,,,,,,,,2020-02-13
,RICHARD MUOKA NGOLYA,,,,,,,,720646247,,ringolya@yahoo.com,,,,,,,,2020-02-13
,DAVID NGOVI,,,,,,,,713517167,,DVDMUTISO51@GMAIL.COM,,,,,,,,2020-02-18
,REUBEN MUSYOKA,,,,,,,,715766482,,,,,,,,,,2020-02-17
,ELIZABETH NZILANI,,,,,,,,71576482,,,,,,,,,,2020-02-17
,ADRIAN MULWA WAMBUA,,,,,,,,722235109,,,,,,,,,,2020-02-17
,GLADYS MUTHOKI MUTISYA,,,,,,,,720735269,,,,,,,,,,2020-02-18
,MAUREEN MUTETYA MUTUKU,,,,,,,,700711118,,MAUREEN.MUTUKU@GMAIL.COM,,,,,,,,2020-02-18
,GLORIA MWIKALI MUTISYA,,,,,,,,725144688,,MUTISYAGLORIA4@GMAIL.COM,,,,,,,,2020-02-18
,MARY MUENI NZUKI,,,,,,,,725916699,,,,,,,,,,2020-02-18
,FELISTER SYOKWIA MUEMA,,,,,,,,711200848,,,,,,,,,,2020-02-24
,HELLEN MULINGE,,,,,,,,725074981,,HMMUTISH@GMAIL.COM,,,,,,,,2020-02-26
,BENSON KIMEU,,,,,,,,726399463,,MUSYOKABENSON50@GMAIL.COM,,,,,,,,2020-02-26
,ANDREW KOOME MWIRICHIA,,,,,,,,712232750,,ANDREWKOOME@GMAIL.COM,,,,,,,,2020-02-26
,MARY MUMBUA MWAURA,,,,,,,,721249298,,,,,,,,,,2020-02-27
,NATASHA MUTHONI MUASYA,,,,,,,,729745481,,,,,,,,,,2020-02-28
,NAOMI KEMUNTO NOHEMU,,,,,,,,720101816,,NAOMIKEMUNTO@GMAIL.COM,,,,,,,,2020-02-29
,ROSE MUTHEU MUNYAO,,,,,,,,726155985,,MUTHERUSAM@GMAIL.COM,,,,,,,,2020-03-01
,ROSE CHERONO NKASIKASI,,,,,,,,715988572,,,,,,,,,,2020-03-03
,PETER KIPKOSGEI KIBET,,,,,,,,701950209,,,,,,,,,,2020-03-04
,CECILIA SYOMBUA KILONZO,,,,,,,,712117287,,,,,,,,,,2020-03-06
,JENNIFER WAITHERA KIMEU,,,,,,,,720172760,,KIMEUJENNIFER7@GMAIL.COM,,,,,,,,2020-03-06
,TIMOTHY NJOGU MWANGI,,,,,,,,722493504,,TMWANGI99@GMAIL.COM,,,,,,,,2020-03-06
,BRIAN MIRITI KARANI,,,,,,,,725970024,,BRIANKARANI2014@GMAIL.COM,,,,,,,,2020-03-09
,GEORGE MUMO KOMBO,,,,,,,,789289988,,KOMBOGEORGE@GMAIL.COM,,,,,,,,2020-03-09
,AGNETAH MALEMBA MWAINGE,,,,,,,,748489436,,NEITAHSAM@GMAIL.COM,,,,,,,,2020-03-09
,YUSAYRAH WAENI AHMED,,,,,,,,719822169,,,,,,,,,,2020-03-10
,CHRISTINE LOKO DOMINIC,,,,,,,,712421391,,,,,,,,,,2020-03-10
,ANTHONY NDAMBUKI,,,,,,,,728532468,,ANTONDAMBUKI@GMAIL.COM,,,,,,,,2020-03-10
,ALICE NYAMBURA MURIITHI,,,,,,,,720240858,,NYAMBURAMURIITHI1@GMAIL.COM,,,,,,,,2020-03-11
,PETER NGOVIA KIEMA,,,,,,,,710318233,,,,,,,,,,2020-03-13
,WINFRED MWIKALI KISILU,,,,,,,,763449197,,WINNIEKISILU@GMAIL.COM,,,,,,,,2020-03-13
,FESTUS NDAVI KIMATU,,,,,,,,728233303,,FESTUSKIMATU@GMAIL.COM,,,,,,,,2020-03-13
,BYRON MUTUA MUSYOKI,,,,,,,,728891402,,,,,,,,,,2020-03-13
,FAITH MAWIA MUTUKU,,,,,,,,727809920,,,,,,,,,,2020-03-13
,PHOEBE SYOMBUA MUMO,,,,,,,,727073569,,,,,,,,,,2020-03-14
,MARK DEENE BINTA,,,,,,,,719496695,,,,,,,,,,2020-03-18
,JOSHUA NYAMAI,,,,,,,,721643868,,,,,,,,,,2020-03-18
,FAITH TANUI,,,,,,,,727613129,,FJTANUI@GMAIL.COM,,,,,,,,2020-03-19
,MERCY NTHAMBI,,,,,,,,727785785,,MERCYNTHAMBI87@GMAIL.COM,,,,,,,,2020-03-23
,TIFFANIE MBITHE MUOKI,,,,,,,,725836963,,,,,,,,,,2020-03-23
,GEOFFREY NGOVI MUTHOKA,,,,,,,,723387621,,MUTHOKAGEOFFREY@GMAIL.COM,,,,,,,,2020-03-23
,JAMES MWANGI NDERITU,,,,,,,,722896310,,KAMESMWANGIKENYA@GMAIL.COM,,,,,,,,2020-03-30
,ALLAN MWENDWA MUTINDA,,,,,,,,710719242,,ALLANMUTINDA33@GMAIL.COM,,,,,,,,2020-03-30
,ELIZABETH MUTISYA,,,,,,,,720999821,,INFORMELIZABETH@GMAIL.COM,,,,,,,,2020-03-31
,GEORGE MASINDE,,,,,,,,713385075,,GEORGEMURSEENDEH@GMAIL.COM,,,,,,,,2020-03-31
,MICHELLE KASIMBI MUTWA,,,,,,,,723062210,,,,,,,,,,2020-03-31
,ZAWADI MINZUGA VIFU,,,,,,,,720215589,,NASIOMBELIZ@GMAIL.COM,,,,,,,,2020-04-01
,DANIEL MUTUKU TWALA,,,,,,,,712368844,,DANTWALA1961@GMAIL.COM,,,,,,,,2020-04-02
,BENSON MWONGELA MUSYOKA,,,,,,,,711678080,,BENSONMWONGELA@YAHOO.COM,,,,,,,,2020-04-06
,AHMED MUTUNGA MOHAMMED,,,,,,,,706224675,,AMUTUNGA965@GMAIL.COM,,,,,,,,2020-04-14
,ANTHONY MAKAU NGOVI,,,,,,,,722348487,,,,,,,,,,2020-04-14
,RICHARD MUEMA,,,,,,,,726267306,,,,,,,,,,2020-04-16
,EDINAH ANKIRI,,,,,,,,711888900,,,,,,,,,,2020-04-17
,RADHIA MKARYE,,,,,,,,725944629,,MKARIA900@GMAIL.COM,,,,,,,,2020-04-17
,FILISTER MUTHEU NZUKI,,,,,,,,723553586,,,,,,,,,,2020-04-17
,SUSAN NGINA NZIOKA,,,,,,,,714596822,,,,,,,,,,2020-04-17
,SHALOM MUUO MUSYOKI,,,,,,,,729482924,,,,,,,,,,2020-04-17
,MAYA MUASYA,,,,,,,,723601242,,,,,,,,,,2020-04-19
,WINFRED MUENI MWAU,,,,,,,,726344497,,,,,,,,,,2020-04-20
,HENRY MUMO KIVUVA,,,,,,,,734399381,,,,,,,,,,2020-04-20
,WINFRED MUMO KINGUTI,,,,,,,,717514563,,MUMOWINFRED@GMAIL.COM,,,,,,,,2020-04-20
,NDUNDA NGWENZE KINGOO,,,,,,,,729412853,,,,,,,,,,2020-04-20
,JOHN KITHUKA MATHEKA,,,,,,,,725561185,,,,,,,,,,2020-04-20
,JUDITH MUENI KALUYO,,,,,,,,716724554,,,,,,,,,,2020-04-20
,FRANCIS MWACHUGHA MKINDI,,,,,,,,711306294,,FRANCISWANJIKU@GMAIL.COM,,,,,,,,2020-04-21
,GILBERT BOB KYULE,,,,,,,,722290462,,,,,,,,,,2020-04-21
,VICTOR KILONZO,,,,,,,,769479071,,,,,,,,,,2020-04-23
,COSMAS MBOLONZI,,,,,,,,723592548,,,,,,,,,,2020-04-23
,PAUL MUASYA KYANZI,,,,,,,,721704308,,PMKYANZI@GMAIL.COM,,,,,,,,2020-04-23
,JOYCE WATATUA,,,,,,,,721772038,,KIOWATATUA@YAHOO.COM,,,,,,,,2020-04-24
,FLORENCE MBITHI,,,,,,,,726124129,,,,,,,,,,2020-04-28
,ESTHER WAYUA NGOI,,,,,,,,722921514,,NGOLEDWARD@GMAIL.COM,,,,,,,,2020-04-28
,PATRICK MULI KINGOO,,,,,,,,721278002,,,,,,,,,,2020-04-29
,STACY MBETE MBATHA,,,,,,,,728579299,,,,,,,,,,2020-04-29
,AMOS KINYAA MULI,,,,,,,,703711405,,AMOZMULI@GMAIL.COM,,,,,,,,2020-04-29
,IRENE SHIBALIRA,,,,,,,,717270927,,REENMARIE7@GMAIL.COM,,,,,,,,2020-04-29
,GRACE SHILOH MUSYOKA,,,,,,,,724290258,,,,,,,,,,2020-04-30
,CYNTHIA NUNDU KYALO,,,,,,,,717891117,,,,,,,,,,2020-04-30
,GIDEON WAMBUA,,,,,,,,728293335,,GIDEONWAMBUA@GMAIL.COM,,,,,,,,2020-04-30
,TABITHA WAMBUA,,,,,,,,716063469,,TABITHAWAMBUA77@GMAIL.COM,,,,,,,,2020-05-02
,PATIENCE NZILANI WAMBUA,,,,,,,,743970679,,,,,,,,,,2020-05-04
,ANGEL NDINDA KIOKO,,,,,,,,724582966,,,,,,,,,,2020-05-04
,EDWIN KIBOKIA ANGOTE,,,,,,,,720221737,,ANGOTEDWIN@GMAIL.CCOM,,,,,,,,2020-05-04
,CHRISTINE MWENDE MUNUVE,,,,,,,,721927088,,,,,,,,,,2020-05-04
,MIKE MWOLOLO ,,,,,,,,722829190,,MMWOLOLO17@GMAIL.COM,,,,,,,,2020-05-05
,CLARE MUTINDI KYALO,,,,,,,,723664661,,,,,,,,,,2020-05-06
,GEOFFREY MULUU,,,,,,,,727402540,,,,,,,,,,2020-05-09
,MARY NTHAMBI MUTUA,,,,,,,,702769541,,MARYMUTUA00@GMAIL.COM,,,,,,,,2020-05-09
,GIFT MUNENE MAKAU,,,,,,,,724117533,,,,,,,,,,2020-05-09
,JASON JUMA MAINGI,,,,,,,,713327747,,,,,,,,,,2020-05-11
,DORCAS KALEKYE MUENDO,,,,,,,,727825603,,DORCASKALEKYE@GMAIL.COM,,,,,,,,2020-05-11
,CAREN ROBI MWITA,,,,,,,,720025603,,,,,,,,,,2020-05-11
,DOREEN GAICUGU KIMATHI,,,,,,,,716538493,,DORIEKIMZ@GMAIL.COM,,,,,,,,2020-05-11
,MERCY NDUNGE SOMBA,,,,,,,,708962738,,MERCYSOMBA5@GMAIL.COM,,,,,,,,2020-05-11
,MYA KATUNGE MUTUA,,,,,,,,718316239,,,,,,,,,,2020-05-11
,EUNICE MWENDE,,,,,,,,776321880,,EMWENDE89@GMAIL.COM,,,,,,,,2020-05-12
,SIMEON MUTUKU,,,,,,,,700441599,,,,,,,,,,2020-05-12
,VALARIE KATEMI WAMBUA,,,,,,,,718686624,,,,,,,,,,2020-05-13
,ZARAH MUTHONI KAMAU,,,,,,,,729685160,,ASHLEYKAMAU@LIVE.COM,,,,,,,,2020-05-13
,GRACE MUNYIVA MUTUA,,,,,,,,710195079,,GRACEMUNYIVA25@GMAIL.COM,,,,,,,,2020-05-13
,AMBER NTHIO NZAUI,,,,,,,,724287162,,,,,,,,,,2020-05-13
,ANNAH MWELU MWEU,,,,,,,,721400744,,ANNMWEU10@GMAIL.COM,,,,,,,,2020-05-13
,SHANTEL NJERI MUTIE,,,,,,,,725665827,,MUTUKOG7@GMAIL.COM,,,,,,,,2020-05-14
,HENRY MUTISO MUSYIMI,,,,,,,,720249241,,CGOKTREASURY@GMAIL.COM,,,,,,,,2020-05-15
,FABIAN MUTUA MULEI ,,,,,,,,723406065,,EMUTUAM@GMAIL.COM,,,,,,,,2020-05-15
,BENDATTE MUTINDI KIMANTHI ,,,,,,,,726961506,,BENDATTE.KIMATHI.@GMAIL.COM,,,,,,,,2020-05-16
,WILFRED MUINDI NGALATU,,,,,,,,727548579,,WILFRED_M@GMAIL.COM,,,,,,,,2020-05-16
,JACINTA NDUKU MUIA,,,,,,,,712863300,,JACINTANDUKUMUIA@GMAIL.COM,,,,,,,,2020-05-16
,ERICK MWENDA MUTEGI,,,,,,,,711441850,,,,,,,,,,2020-05-18
,PETERSON MUEMA MATELI,,,,,,,,720800430,,PETERSONMATELI18@GMAIL.COM,,,,,,,,2020-05-18
,PETER NZUKI MUTUNGA,,,,,,,,713561609,,,,,,,,,,2020-05-18
,ACHSAR NZIVA MUTISO,,,,,,,,722845273,,,,,,,,,,2020-05-19
,ALICE KAMANTHE MWONGELA,,,,,,,,728200125,,,,,,,,,,2020-05-20
,CHRISTINE NJERI WAMBUA,,,,,,,,726458730,,VINJETINAH.CW@GMAIL.COM,,,,,,,,2020-05-20
,JANE WAENI MUTHENYA,,,,,,,,721451585,,,,,,,,,,2020-05-21
,NELENE MUMBE MUTISYA,,,,,,,,723724787,,,,,,,,,,2020-05-21
,KYLA KANANA KIMANTHI,,,,,,,,727405303,,,,,,,,,,2020-05-22
,ABDIRAHMAN KADIO,,,,,,,,722780863,,,,,,,,,,2020-05-22
,RUTH.M KYATHA,,,,,,,,722235872,,rukyatha@gmail.com,,,,,,,,2020-05-26
,ABEL WAMBUA ULANGA,,,,,,,,720353212,,wambuaulanga@gmail.com,,,,,,,,2020-05-26
,SUSAN MUTONO MUTINDA,,,,,,,,717834414,,susanmutono19@gmail.com,,,,,,,,2020-05-26
,MORRIS MUEMA NTHIANI,,,,,,,,769459695,,,,,,,,,,2020-05-27
,SAMUEL NDUNG'U GATIMU,,,,,,,,723400619,,ndungugatimu14@gmail.com,,,,,,,,2020-05-27
,GODFREY MUNYAO KYENGO,,,,,,,,714338144,,,,,,,,,,2020-05-27
,FRANCIS KINYUA MURIITHI,,,,,,,,713297319,,,,,,,,,,2020-05-28
,ALDIN AQUILA RAMUKA,,,,,,,,723834700,,,,,,,,,,2020-05-28
,GRACE MUENI KILONZO,,,,,,,,716471730,,gmueni.kilonzo@gmail.com,,,,,,,,2020-05-28
,ANGELA KHISA,,,,,,,,704093474,,,,,,,,,,2020-05-29
,FLORA NDILA KIIO,,,,,,,,719551345,,,,,,,,,,2020-05-29
,ELSA AMANI MWANIA,,,,,,,,728812482,,,,,,,,,,2020-05-29
,JEMIMAH MBINYA LELU,,,,,,,,716187501,,,,,,,,,,2020-05-29
,ESTHER KANINI MUTUKU,,,,,,,,728990311,,,,,,,,,,2020-05-30